%YAML 1.1
%TAG !u! tag:unity3d.com,2011:
--- !u!74 &7400000
AnimationClip:
  m_ObjectHideFlags: 0
  m_CorrespondingSourceObject: {fileID: 0}
  m_PrefabInternal: {fileID: 0}
  m_Name: FastObjectAnim
  serializedVersion: 6
  m_Legacy: 0
  m_Compressed: 0
  m_UseHighQualityCurve: 1
  m_RotationCurves: []
  m_CompressedRotationCurves: []
  m_EulerCurves: []
  m_PositionCurves: []
  m_ScaleCurves: []
  m_FloatCurves: []
  m_PPtrCurves:
  - curve:
    - time: 0
      value: {fileID: 21300000, guid: e97e0d2796295a145a6d48eb32adebb4, type: 3}
    - time: 0.05
      value: {fileID: 21300000, guid: 7eb868ab98106bf47ba33cb4bf58bcf9, type: 3}
    - time: 0.06666667
      value: {fileID: 21300000, guid: 38b719fbb6fbb904d95b0caf808352ca, type: 3}
    - time: 0.11666667
      value: {fileID: 21300000, guid: 83e044318f2819040beda95fe260bd4e, type: 3}
    - time: 0.15
      value: {fileID: 21300000, guid: 5d25b091ee187fb4aa72b62b2897e71b, type: 3}
    - time: 0.18333334
      value: {fileID: 21300000, guid: 5afcd7ea696e0064a84b1fc2144fbf21, type: 3}
    - time: 0.21666667
      value: {fileID: 21300000, guid: f6f462e37592c064096ec5badb0f8a0c, type: 3}
    - time: 0.26666668
      value: {fileID: 21300000, guid: d6f8fc5041286a341909dcd21e79693a, type: 3}
    - time: 0.28333333
      value: {fileID: 21300000, guid: 693d719351bb45f408f20c1c10838846, type: 3}
    - time: 0.33333334
      value: {fileID: 21300000, guid: 886fc3c659ac5af4e8c50cedb2275023, type: 3}
    attribute: m_Sprite
    path: 
    classID: 212
    script: {fileID: 0}
  m_SampleRate: 60
  m_WrapMode: 0
  m_Bounds:
    m_Center: {x: 0, y: 0, z: 0}
    m_Extent: {x: 0, y: 0, z: 0}
  m_ClipBindingConstant:
    genericBindings:
    - serializedVersion: 2
      path: 0
      attribute: 0
      script: {fileID: 0}
      typeID: 212
      customType: 23
      isPPtrCurve: 1
    pptrCurveMapping:
    - {fileID: 21300000, guid: e97e0d2796295a145a6d48eb32adebb4, type: 3}
    - {fileID: 21300000, guid: 7eb868ab98106bf47ba33cb4bf58bcf9, type: 3}
    - {fileID: 21300000, guid: 38b719fbb6fbb904d95b0caf808352ca, type: 3}
    - {fileID: 21300000, guid: 83e044318f2819040beda95fe260bd4e, type: 3}
    - {fileID: 21300000, guid: 5d25b091ee187fb4aa72b62b2897e71b, type: 3}
    - {fileID: 21300000, guid: 5afcd7ea696e0064a84b1fc2144fbf21, type: 3}
    - {fileID: 21300000, guid: f6f462e37592c064096ec5badb0f8a0c, type: 3}
    - {fileID: 21300000, guid: d6f8fc5041286a341909dcd21e79693a, type: 3}
    - {fileID: 21300000, guid: 693d719351bb45f408f20c1c10838846, type: 3}
    - {fileID: 21300000, guid: 886fc3c659ac5af4e8c50cedb2275023, type: 3}
  m_AnimationClipSettings:
    serializedVersion: 2
    m_AdditiveReferencePoseClip: {fileID: 0}
    m_AdditiveReferencePoseTime: 0
    m_StartTime: 0
    m_StopTime: 0.35000002
    m_OrientationOffsetY: 0
    m_Level: 0
    m_CycleOffset: 0
    m_HasAdditiveReferencePose: 0
    m_LoopTime: 0
    m_LoopBlend: 0
    m_LoopBlendOrientation: 0
    m_LoopBlendPositionY: 0
    m_LoopBlendPositionXZ: 0
    m_KeepOriginalOrientation: 0
    m_KeepOriginalPositionY: 1
    m_KeepOriginalPositionXZ: 0
    m_HeightFromFeet: 0
    m_Mirror: 0
  m_EditorCurves: []
  m_EulerEditorCurves: []
  m_HasGenericRootTransform: 0
  m_HasMotionFloatCurves: 0
  m_GenerateMotionCurves: 0
  m_Events:
  - time: 0.16666667
    functionName: Splash
    data: 
    objectReferenceParameter: {fileID: 0}
    floatParameter: 0
    intParameter: 0
    messageOptions: 0
