%YAML 1.1
%TAG !u! tag:unity3d.com,2011:
--- !u!78 &1
TagManager:
  serializedVersion: 2
  tags:
  - MoveIndicator
  - Interactable
  - Wagon
  - FirstWaypoint
  - LastWaypoint
  layers:
  - Default
  - TransparentFX
  - Ignore Raycast
  - 
  - Water
  - UI
  - 
  - 
  - Ground
  - Objects
  - 
  - 
  - 
  - 
  - 
  - 
  - 
  - 
  - 
  - 
  - 
  - 
  - 
  - 
  - 
  - 
  - 
  - 
  - 
  - 
  - 
  - 
  m_SortingLayers:
  - name: BG
    uniqueID: 3413516869
    locked: 0
  - name: Circles
    uniqueID: 2023934615
    locked: 0
  - name: Mountain 2
    uniqueID: 898315499
    locked: 0
  - name: Arm
    uniqueID: 3987924097
    locked: 0
  - name: Objects 3
    uniqueID: 454749475
    locked: 0
  - name: Mountain 1
    uniqueID: 1244559663
    locked: 0
  - name: Objects 2
    uniqueID: 1509541135
    locked: 0
  - name: Chain Reaction
    uniqueID: 1633850073
    locked: 0
  - name: Ground
    uniqueID: 1865981243
    locked: 0
  - name: Objects 1
    uniqueID: 3964799973
    locked: 0
  - name: Player
    uniqueID: 2028566691
    locked: 0
  - name: Trees
    uniqueID: 1723536269
    locked: 0
  - name: Default
    uniqueID: 0
    locked: 0
