%YAML 1.1
%TAG !u! tag:unity3d.com,2011:
--- !u!74 &7400000
AnimationClip:
  m_ObjectHideFlags: 0
  m_CorrespondingSourceObject: {fileID: 0}
  m_PrefabInternal: {fileID: 0}
  m_Name: HeadAnim
  serializedVersion: 6
  m_Legacy: 0
  m_Compressed: 0
  m_UseHighQualityCurve: 1
  m_RotationCurves: []
  m_CompressedRotationCurves: []
  m_EulerCurves: []
  m_PositionCurves: []
  m_ScaleCurves: []
  m_FloatCurves: []
  m_PPtrCurves:
  - curve:
    - time: 0
      value: {fileID: 21300000, guid: 9783a95a3c862594dbe384cd9dd812bf, type: 3}
    - time: 0.06666667
      value: {fileID: 21300000, guid: 36e9834ac180c4940a258d162d2b9004, type: 3}
    - time: 0.083333336
      value: {fileID: 21300000, guid: a807e5a8d3468c7428f3068bd1953a69, type: 3}
    - time: 0.18333334
      value: {fileID: 21300000, guid: 410179b240ebb2646a164abb8e41e3c9, type: 3}
    - time: 0.21666667
      value: {fileID: 21300000, guid: a445b1af69dc14a4b935074492669af3, type: 3}
    - time: 0.31666666
      value: {fileID: 21300000, guid: a83ada95e1bdca94692c7caccc36af7e, type: 3}
    - time: 0.33333334
      value: {fileID: 21300000, guid: 48bac9b832d703344b0188372fd82c61, type: 3}
    - time: 0.4
      value: {fileID: 21300000, guid: 873e16b8a94a394448dff0a929538255, type: 3}
    - time: 0.46666667
      value: {fileID: 21300000, guid: ebe613c5a925f80498684be17f1d8b09, type: 3}
    - time: 0.48333332
      value: {fileID: 21300000, guid: 5e5fd3f0dc12a024484ca2c5222e28d0, type: 3}
    - time: 0.5833333
      value: {fileID: 21300000, guid: 336fe43242b0aaa4a98cd2f7d5ef2a9b, type: 3}
    - time: 0.6166667
      value: {fileID: 21300000, guid: 0c3836b62ae5b6c41a1b615203e47684, type: 3}
    - time: 0.68333334
      value: {fileID: 21300000, guid: bcf33c2ddb9fc2c4795d55a3bfce048d, type: 3}
    - time: 0.73333335
      value: {fileID: 21300000, guid: d208a9691be337c4bacb4220723cfc40, type: 3}
    - time: 0.8
      value: {fileID: 21300000, guid: 22a5031e7d35237498df9119a8b5d1d4, type: 3}
    - time: 0.8666667
      value: {fileID: 21300000, guid: 2e76128a116e5e942a9b70047eef7707, type: 3}
    - time: 0.8833333
      value: {fileID: 21300000, guid: b6215a99ab2233b4b89cb24f64dbfa6e, type: 3}
    - time: 0.95
      value: {fileID: 21300000, guid: f1fe8c7e45e282741bab86a429251d2a, type: 3}
    - time: 1.0166667
      value: {fileID: 21300000, guid: 7284e21c1665b204cb80dc8ed4969005, type: 3}
    - time: 1.1166667
      value: {fileID: 21300000, guid: 6ea6e74f648c71249ab2977b97361587, type: 3}
    - time: 1.1333333
      value: {fileID: 21300000, guid: 1d1085855c441dc4b98041b667b41a4b, type: 3}
    - time: 1.2
      value: {fileID: 21300000, guid: cc4b3110fbebd2a4eb35a2443dbf8361, type: 3}
    - time: 1.2666667
      value: {fileID: 21300000, guid: 3c6e16c605187054e97dce458fb1c3e5, type: 3}
    - time: 1.2833333
      value: {fileID: 21300000, guid: cf056cf4fc57cb5498d4948ed9b9d1cb, type: 3}
    - time: 1.3833333
      value: {fileID: 21300000, guid: d60b87dd8fbd9144885bca478c78ed53, type: 3}
    - time: 1.4166666
      value: {fileID: 21300000, guid: b534d4b87bb020b42bcc4449f0e2e714, type: 3}
    - time: 1.5166667
      value: {fileID: 21300000, guid: 75a32de6688b3cf41b4b25347b9721d7, type: 3}
    - time: 1.5333333
      value: {fileID: 21300000, guid: 86c155b0f0eb14e49be1294af97f7597, type: 3}
    - time: 1.6
      value: {fileID: 21300000, guid: f2c56ae246186b040ba0f8067d1dc03c, type: 3}
    - time: 1.6666666
      value: {fileID: 21300000, guid: fc6f49bcb29f055408078a7785121bd9, type: 3}
    - time: 1.7166667
      value: {fileID: 21300000, guid: a2bf67f088729524da1c6ca2d953f5c8, type: 3}
    - time: 1.7833333
      value: {fileID: 21300000, guid: fa7f1b5946d2b2b4b99639541e622f38, type: 3}
    - time: 1.8166667
      value: {fileID: 21300000, guid: 3ec7a9015264376499bacdfdf8dce479, type: 3}
    - time: 1.9166666
      value: {fileID: 21300000, guid: 75c5a99a39e0840489e5a29006474a71, type: 3}
    - time: 1.9333333
      value: {fileID: 21300000, guid: b7adb1a4c78846b4b88303ff6577ce9b, type: 3}
    - time: 2
      value: {fileID: 21300000, guid: c1595e315f4679443bbcc05db7d342e8, type: 3}
    attribute: m_Sprite
    path: 
    classID: 212
    script: {fileID: 0}
  m_SampleRate: 60
  m_WrapMode: 0
  m_Bounds:
    m_Center: {x: 0, y: 0, z: 0}
    m_Extent: {x: 0, y: 0, z: 0}
  m_ClipBindingConstant:
    genericBindings:
    - serializedVersion: 2
      path: 0
      attribute: 0
      script: {fileID: 0}
      typeID: 212
      customType: 23
      isPPtrCurve: 1
    pptrCurveMapping:
    - {fileID: 21300000, guid: 9783a95a3c862594dbe384cd9dd812bf, type: 3}
    - {fileID: 21300000, guid: 36e9834ac180c4940a258d162d2b9004, type: 3}
    - {fileID: 21300000, guid: a807e5a8d3468c7428f3068bd1953a69, type: 3}
    - {fileID: 21300000, guid: 410179b240ebb2646a164abb8e41e3c9, type: 3}
    - {fileID: 21300000, guid: a445b1af69dc14a4b935074492669af3, type: 3}
    - {fileID: 21300000, guid: a83ada95e1bdca94692c7caccc36af7e, type: 3}
    - {fileID: 21300000, guid: 48bac9b832d703344b0188372fd82c61, type: 3}
    - {fileID: 21300000, guid: 873e16b8a94a394448dff0a929538255, type: 3}
    - {fileID: 21300000, guid: ebe613c5a925f80498684be17f1d8b09, type: 3}
    - {fileID: 21300000, guid: 5e5fd3f0dc12a024484ca2c5222e28d0, type: 3}
    - {fileID: 21300000, guid: 336fe43242b0aaa4a98cd2f7d5ef2a9b, type: 3}
    - {fileID: 21300000, guid: 0c3836b62ae5b6c41a1b615203e47684, type: 3}
    - {fileID: 21300000, guid: bcf33c2ddb9fc2c4795d55a3bfce048d, type: 3}
    - {fileID: 21300000, guid: d208a9691be337c4bacb4220723cfc40, type: 3}
    - {fileID: 21300000, guid: 22a5031e7d35237498df9119a8b5d1d4, type: 3}
    - {fileID: 21300000, guid: 2e76128a116e5e942a9b70047eef7707, type: 3}
    - {fileID: 21300000, guid: b6215a99ab2233b4b89cb24f64dbfa6e, type: 3}
    - {fileID: 21300000, guid: f1fe8c7e45e282741bab86a429251d2a, type: 3}
    - {fileID: 21300000, guid: 7284e21c1665b204cb80dc8ed4969005, type: 3}
    - {fileID: 21300000, guid: 6ea6e74f648c71249ab2977b97361587, type: 3}
    - {fileID: 21300000, guid: 1d1085855c441dc4b98041b667b41a4b, type: 3}
    - {fileID: 21300000, guid: cc4b3110fbebd2a4eb35a2443dbf8361, type: 3}
    - {fileID: 21300000, guid: 3c6e16c605187054e97dce458fb1c3e5, type: 3}
    - {fileID: 21300000, guid: cf056cf4fc57cb5498d4948ed9b9d1cb, type: 3}
    - {fileID: 21300000, guid: d60b87dd8fbd9144885bca478c78ed53, type: 3}
    - {fileID: 21300000, guid: b534d4b87bb020b42bcc4449f0e2e714, type: 3}
    - {fileID: 21300000, guid: 75a32de6688b3cf41b4b25347b9721d7, type: 3}
    - {fileID: 21300000, guid: 86c155b0f0eb14e49be1294af97f7597, type: 3}
    - {fileID: 21300000, guid: f2c56ae246186b040ba0f8067d1dc03c, type: 3}
    - {fileID: 21300000, guid: fc6f49bcb29f055408078a7785121bd9, type: 3}
    - {fileID: 21300000, guid: a2bf67f088729524da1c6ca2d953f5c8, type: 3}
    - {fileID: 21300000, guid: fa7f1b5946d2b2b4b99639541e622f38, type: 3}
    - {fileID: 21300000, guid: 3ec7a9015264376499bacdfdf8dce479, type: 3}
    - {fileID: 21300000, guid: 75c5a99a39e0840489e5a29006474a71, type: 3}
    - {fileID: 21300000, guid: b7adb1a4c78846b4b88303ff6577ce9b, type: 3}
    - {fileID: 21300000, guid: c1595e315f4679443bbcc05db7d342e8, type: 3}
  m_AnimationClipSettings:
    serializedVersion: 2
    m_AdditiveReferencePoseClip: {fileID: 0}
    m_AdditiveReferencePoseTime: 0
    m_StartTime: 0
    m_StopTime: 2.0166667
    m_OrientationOffsetY: 0
    m_Level: 0
    m_CycleOffset: 0
    m_HasAdditiveReferencePose: 0
    m_LoopTime: 1
    m_LoopBlend: 0
    m_LoopBlendOrientation: 0
    m_LoopBlendPositionY: 0
    m_LoopBlendPositionXZ: 0
    m_KeepOriginalOrientation: 0
    m_KeepOriginalPositionY: 1
    m_KeepOriginalPositionXZ: 0
    m_HeightFromFeet: 0
    m_Mirror: 0
  m_EditorCurves: []
  m_EulerEditorCurves: []
  m_HasGenericRootTransform: 0
  m_HasMotionFloatCurves: 0
  m_GenerateMotionCurves: 0
  m_Events: []
