%YAML 1.1
%TAG !u! tag:unity3d.com,2011:
--- !u!74 &7400000
AnimationClip:
  m_ObjectHideFlags: 0
  m_CorrespondingSourceObject: {fileID: 0}
  m_PrefabInternal: {fileID: 0}
  m_Name: InteractAnim
  serializedVersion: 6
  m_Legacy: 0
  m_Compressed: 0
  m_UseHighQualityCurve: 1
  m_RotationCurves: []
  m_CompressedRotationCurves: []
  m_EulerCurves: []
  m_PositionCurves: []
  m_ScaleCurves: []
  m_FloatCurves: []
  m_PPtrCurves:
  - curve:
    - time: 0
      value: {fileID: 21300000, guid: c79e40945e9883346a7554803a49eee2, type: 3}
    - time: 0.06666667
      value: {fileID: 21300000, guid: c0b90570f7e08014bbca3b016976beb2, type: 3}
    - time: 0.13333334
      value: {fileID: 21300000, guid: e8fb5574e7326d44eaaef8dab8d824bc, type: 3}
    - time: 0.18333334
      value: {fileID: 21300000, guid: cfdaff7516589b9448f01e2cdfd8ca16, type: 3}
    - time: 0.25
      value: {fileID: 21300000, guid: d880fe7ac4dc14d438486533454f61b7, type: 3}
    - time: 0.31666666
      value: {fileID: 21300000, guid: f61c83c0009eddb41b2820c4d0e8dafb, type: 3}
    - time: 0.36666667
      value: {fileID: 21300000, guid: dcd10d01fa396b649b56279a58f6d16d, type: 3}
    - time: 0.43333334
      value: {fileID: 21300000, guid: 93ad4979900ca7247b7e69072b795860, type: 3}
    - time: 0.5
      value: {fileID: 21300000, guid: 68b90c5da5c24964487fe0fd02967e50, type: 3}
    - time: 0.56666666
      value: {fileID: 21300000, guid: dd0d1d6e71470a044a586cb439b463a9, type: 3}
    - time: 0.6333333
      value: {fileID: 21300000, guid: 066c6979d528d2640a45892aa42567bf, type: 3}
    - time: 0.68333334
      value: {fileID: 21300000, guid: f647b3a64babf9242b8ae67dd74862a9, type: 3}
    - time: 0.75
      value: {fileID: 21300000, guid: d2321ea7e0a8e444bb74a767f8a97769, type: 3}
    - time: 1.1666666
      value: {fileID: 21300000, guid: fc17efe834f49ac458f020b4f7f961b1, type: 3}
    - time: 1.2166667
      value: {fileID: 21300000, guid: 44712277c769e9c4994b05147ffcaf7b, type: 3}
    - time: 1.2833333
      value: {fileID: 21300000, guid: 4109f95abc6cd98458680d6572369111, type: 3}
    - time: 1.35
      value: {fileID: 21300000, guid: 8a7e973237d52434d990a80e65b7272b, type: 3}
    - time: 1.4166666
      value: {fileID: 21300000, guid: c6d94561f1b1da047881a7aa19030775, type: 3}
    - time: 1.4833333
      value: {fileID: 21300000, guid: ff4bf821d936c44488c9e2cf2bdff4f6, type: 3}
    - time: 1.5333333
      value: {fileID: 21300000, guid: 4185e3e3391953c4bb98f751a68bd184, type: 3}
    - time: 1.6
      value: {fileID: 21300000, guid: 788defb3b452a07439354c19e20986c5, type: 3}
    - time: 1.6666666
      value: {fileID: 21300000, guid: b37df2abcc97b9b4db961cd7bd808274, type: 3}
    - time: 1.7166667
      value: {fileID: 21300000, guid: ab51c872c38956d4eb5367851e347b96, type: 3}
    - time: 1.7833333
      value: {fileID: 21300000, guid: d5df0109110e0e84ea2731f640de73c8, type: 3}
    - time: 1.85
      value: {fileID: 21300000, guid: 07e9fa122e7a0ac49af5f17a8384882a, type: 3}
    - time: 2.8333333
      value: {fileID: 21300000, guid: 3a1dfa2f5dc6d234c87dae8fdab109e1, type: 3}
    - time: 2.9
      value: {fileID: 21300000, guid: f0b9383de4d29774d87d729fb425a10e, type: 3}
    - time: 2.95
      value: {fileID: 21300000, guid: 8f261c2b52711f247a68b2d5479b522e, type: 3}
    - time: 3.0166667
      value: {fileID: 21300000, guid: 96e7b78c266656c4ab3c44d9931d6da3, type: 3}
    - time: 3.0833333
      value: {fileID: 21300000, guid: 1b489ff6ce2c9814b8a3651fcd0db738, type: 3}
    - time: 3.1333334
      value: {fileID: 21300000, guid: edd61a47b32813f47b7efdc715d1b6a0, type: 3}
    - time: 3.2
      value: {fileID: 21300000, guid: 840765e13b527d74fb003a2207bdb099, type: 3}
    - time: 3.2666667
      value: {fileID: 21300000, guid: f42fc72ee4c251646adf0023ec205992, type: 3}
    - time: 3.3333333
      value: {fileID: 21300000, guid: cd0083ef462f7184db6334c47692a75e, type: 3}
    - time: 3.4
      value: {fileID: 21300000, guid: a988ab665d899104b96287a3a26b70ab, type: 3}
    - time: 3.45
      value: {fileID: 21300000, guid: cc5f187ed3d052543bbb69fd13140ce9, type: 3}
    - time: 3.5166667
      value: {fileID: 21300000, guid: 9d969a5624427164e9a24c1bba84318d, type: 3}
    - time: 3.5666666
      value: {fileID: 21300000, guid: e83ff191944345949866ec84bf9215ca, type: 3}
    - time: 3.6166666
      value: {fileID: 21300000, guid: d8fe35e72994413488f22af330206b9a, type: 3}
    - time: 3.6833334
      value: {fileID: 21300000, guid: cad4a76a24b5a8b458a4c95cfa66c05d, type: 3}
    - time: 3.75
      value: {fileID: 21300000, guid: 73a0eab99d2beea42b1d2be4cf7b91a7, type: 3}
    - time: 3.8166666
      value: {fileID: 21300000, guid: 1f2acf1b5f8d7ae42ba82fbdea3fe129, type: 3}
    - time: 3.8833334
      value: {fileID: 21300000, guid: c9be24ac3dba10746a97ff237cd170da, type: 3}
    - time: 3.9333334
      value: {fileID: 21300000, guid: 9bc093cb07128bd42bb3877ab8086b57, type: 3}
    - time: 4
      value: {fileID: 21300000, guid: ac263d5434bf7b34ebbccdaaf99d9853, type: 3}
    - time: 4.0666666
      value: {fileID: 21300000, guid: a68ccd4f6aaccf54eb3551d4ad4e952b, type: 3}
    - time: 4.116667
      value: {fileID: 21300000, guid: afdb8da250f01ad45b0c9c20416c3272, type: 3}
    - time: 4.1833334
      value: {fileID: 21300000, guid: 379dfd09261e62848a77c8b283e9ccdd, type: 3}
    - time: 4.25
      value: {fileID: 21300000, guid: 58b2af099fd2acc46b6a0a7d3870433a, type: 3}
    attribute: m_Sprite
    path: 
    classID: 212
    script: {fileID: 0}
  m_SampleRate: 60
  m_WrapMode: 0
  m_Bounds:
    m_Center: {x: 0, y: 0, z: 0}
    m_Extent: {x: 0, y: 0, z: 0}
  m_ClipBindingConstant:
    genericBindings:
    - serializedVersion: 2
      path: 0
      attribute: 0
      script: {fileID: 0}
      typeID: 212
      customType: 23
      isPPtrCurve: 1
    pptrCurveMapping:
    - {fileID: 21300000, guid: c79e40945e9883346a7554803a49eee2, type: 3}
    - {fileID: 21300000, guid: c0b90570f7e08014bbca3b016976beb2, type: 3}
    - {fileID: 21300000, guid: e8fb5574e7326d44eaaef8dab8d824bc, type: 3}
    - {fileID: 21300000, guid: cfdaff7516589b9448f01e2cdfd8ca16, type: 3}
    - {fileID: 21300000, guid: d880fe7ac4dc14d438486533454f61b7, type: 3}
    - {fileID: 21300000, guid: f61c83c0009eddb41b2820c4d0e8dafb, type: 3}
    - {fileID: 21300000, guid: dcd10d01fa396b649b56279a58f6d16d, type: 3}
    - {fileID: 21300000, guid: 93ad4979900ca7247b7e69072b795860, type: 3}
    - {fileID: 21300000, guid: 68b90c5da5c24964487fe0fd02967e50, type: 3}
    - {fileID: 21300000, guid: dd0d1d6e71470a044a586cb439b463a9, type: 3}
    - {fileID: 21300000, guid: 066c6979d528d2640a45892aa42567bf, type: 3}
    - {fileID: 21300000, guid: f647b3a64babf9242b8ae67dd74862a9, type: 3}
    - {fileID: 21300000, guid: d2321ea7e0a8e444bb74a767f8a97769, type: 3}
    - {fileID: 21300000, guid: fc17efe834f49ac458f020b4f7f961b1, type: 3}
    - {fileID: 21300000, guid: 44712277c769e9c4994b05147ffcaf7b, type: 3}
    - {fileID: 21300000, guid: 4109f95abc6cd98458680d6572369111, type: 3}
    - {fileID: 21300000, guid: 8a7e973237d52434d990a80e65b7272b, type: 3}
    - {fileID: 21300000, guid: c6d94561f1b1da047881a7aa19030775, type: 3}
    - {fileID: 21300000, guid: ff4bf821d936c44488c9e2cf2bdff4f6, type: 3}
    - {fileID: 21300000, guid: 4185e3e3391953c4bb98f751a68bd184, type: 3}
    - {fileID: 21300000, guid: 788defb3b452a07439354c19e20986c5, type: 3}
    - {fileID: 21300000, guid: b37df2abcc97b9b4db961cd7bd808274, type: 3}
    - {fileID: 21300000, guid: ab51c872c38956d4eb5367851e347b96, type: 3}
    - {fileID: 21300000, guid: d5df0109110e0e84ea2731f640de73c8, type: 3}
    - {fileID: 21300000, guid: 07e9fa122e7a0ac49af5f17a8384882a, type: 3}
    - {fileID: 21300000, guid: 3a1dfa2f5dc6d234c87dae8fdab109e1, type: 3}
    - {fileID: 21300000, guid: f0b9383de4d29774d87d729fb425a10e, type: 3}
    - {fileID: 21300000, guid: 8f261c2b52711f247a68b2d5479b522e, type: 3}
    - {fileID: 21300000, guid: 96e7b78c266656c4ab3c44d9931d6da3, type: 3}
    - {fileID: 21300000, guid: 1b489ff6ce2c9814b8a3651fcd0db738, type: 3}
    - {fileID: 21300000, guid: edd61a47b32813f47b7efdc715d1b6a0, type: 3}
    - {fileID: 21300000, guid: 840765e13b527d74fb003a2207bdb099, type: 3}
    - {fileID: 21300000, guid: f42fc72ee4c251646adf0023ec205992, type: 3}
    - {fileID: 21300000, guid: cd0083ef462f7184db6334c47692a75e, type: 3}
    - {fileID: 21300000, guid: a988ab665d899104b96287a3a26b70ab, type: 3}
    - {fileID: 21300000, guid: cc5f187ed3d052543bbb69fd13140ce9, type: 3}
    - {fileID: 21300000, guid: 9d969a5624427164e9a24c1bba84318d, type: 3}
    - {fileID: 21300000, guid: e83ff191944345949866ec84bf9215ca, type: 3}
    - {fileID: 21300000, guid: d8fe35e72994413488f22af330206b9a, type: 3}
    - {fileID: 21300000, guid: cad4a76a24b5a8b458a4c95cfa66c05d, type: 3}
    - {fileID: 21300000, guid: 73a0eab99d2beea42b1d2be4cf7b91a7, type: 3}
    - {fileID: 21300000, guid: 1f2acf1b5f8d7ae42ba82fbdea3fe129, type: 3}
    - {fileID: 21300000, guid: c9be24ac3dba10746a97ff237cd170da, type: 3}
    - {fileID: 21300000, guid: 9bc093cb07128bd42bb3877ab8086b57, type: 3}
    - {fileID: 21300000, guid: ac263d5434bf7b34ebbccdaaf99d9853, type: 3}
    - {fileID: 21300000, guid: a68ccd4f6aaccf54eb3551d4ad4e952b, type: 3}
    - {fileID: 21300000, guid: afdb8da250f01ad45b0c9c20416c3272, type: 3}
    - {fileID: 21300000, guid: 379dfd09261e62848a77c8b283e9ccdd, type: 3}
    - {fileID: 21300000, guid: 58b2af099fd2acc46b6a0a7d3870433a, type: 3}
  m_AnimationClipSettings:
    serializedVersion: 2
    m_AdditiveReferencePoseClip: {fileID: 0}
    m_AdditiveReferencePoseTime: 0
    m_StartTime: 0
    m_StopTime: 4.266667
    m_OrientationOffsetY: 0
    m_Level: 0
    m_CycleOffset: 0
    m_HasAdditiveReferencePose: 0
    m_LoopTime: 1
    m_LoopBlend: 0
    m_LoopBlendOrientation: 0
    m_LoopBlendPositionY: 0
    m_LoopBlendPositionXZ: 0
    m_KeepOriginalOrientation: 0
    m_KeepOriginalPositionY: 1
    m_KeepOriginalPositionXZ: 0
    m_HeightFromFeet: 0
    m_Mirror: 0
  m_EditorCurves: []
  m_EulerEditorCurves: []
  m_HasGenericRootTransform: 0
  m_HasMotionFloatCurves: 0
  m_GenerateMotionCurves: 0
  m_Events:
  - time: 2.6666667
    functionName: SetFinishedBool
    data: 
    objectReferenceParameter: {fileID: 0}
    floatParameter: 0
    intParameter: 0
    messageOptions: 0
