%YAML 1.1
%TAG !u! tag:unity3d.com,2011:
--- !u!74 &7400000
AnimationClip:
  m_ObjectHideFlags: 0
  m_CorrespondingSourceObject: {fileID: 0}
  m_PrefabInternal: {fileID: 0}
  m_Name: SwirlAnim
  serializedVersion: 6
  m_Legacy: 0
  m_Compressed: 0
  m_UseHighQualityCurve: 1
  m_RotationCurves: []
  m_CompressedRotationCurves: []
  m_EulerCurves: []
  m_PositionCurves: []
  m_ScaleCurves: []
  m_FloatCurves: []
  m_PPtrCurves:
  - curve:
    - time: 0
      value: {fileID: 21300000, guid: 18a6eb32e40f555428b4714afd0cfaf7, type: 3}
    - time: 0.033333335
      value: {fileID: 21300000, guid: f71cd75c24b94fd4f87bd6581eb88e29, type: 3}
    - time: 0.083333336
      value: {fileID: 21300000, guid: 66d3755082abc5b4f8a08326f5c3f185, type: 3}
    - time: 0.13333334
      value: {fileID: 21300000, guid: 803b6cce92055ba4384ef746e47bffe9, type: 3}
    - time: 0.16666667
      value: {fileID: 21300000, guid: ddff6c5f91ee8ff4bbcdbc67f04c99c0, type: 3}
    - time: 0.21666667
      value: {fileID: 21300000, guid: ad72c264a05961c479cec92dd26da984, type: 3}
    - time: 0.25
      value: {fileID: 21300000, guid: 7851275abfb3f7f4e82aa5f8b327ec25, type: 3}
    - time: 0.3
      value: {fileID: 21300000, guid: 35ed800a0a8b1ff4899421f738eac791, type: 3}
    - time: 0.33333334
      value: {fileID: 21300000, guid: f800486cb1276e64ba076cda5ebd1cf3, type: 3}
    - time: 0.36666667
      value: {fileID: 21300000, guid: eb3cc7a8d510a2c45a2e890ef7517343, type: 3}
    - time: 0.41666666
      value: {fileID: 21300000, guid: 7a85ba5a0c7c1704f905b421850d013b, type: 3}
    - time: 0.46666667
      value: {fileID: 21300000, guid: b1e2b3e31b7e3e5478044a3fb926e493, type: 3}
    - time: 0.5
      value: {fileID: 21300000, guid: 721c0be397566f24fbab61cdd41304e6, type: 3}
    - time: 0.53333336
      value: {fileID: 21300000, guid: 53f2f357364aa2742b1476fbc034aa22, type: 3}
    - time: 0.5833333
      value: {fileID: 21300000, guid: ba24377cd2461aa47b5510f21dd48fff, type: 3}
    - time: 0.6333333
      value: {fileID: 21300000, guid: 76489cddfab91fd4cb877e1a42515a17, type: 3}
    - time: 0.6666667
      value: {fileID: 21300000, guid: b7d30a294d0ad994e8cf72484e24a306, type: 3}
    - time: 0.7
      value: {fileID: 21300000, guid: fd20a477639a26d4c99af53272f890cd, type: 3}
    - time: 0.75
      value: {fileID: 21300000, guid: 627423f905ea0e041992110f214015cb, type: 3}
    - time: 0.78333336
      value: {fileID: 21300000, guid: 7dc8c9b6a7b9b0b4d906ca9f2a82a3b7, type: 3}
    - time: 0.8333333
      value: {fileID: 21300000, guid: fbc0453405a3c79438a3c2da047b4bb5, type: 3}
    - time: 0.8666667
      value: {fileID: 21300000, guid: 4bc60011a2ab2d74a99cd340c22a7bf3, type: 3}
    - time: 0.9166667
      value: {fileID: 21300000, guid: cc7a5aa00c6513442a436fe0f4fda958, type: 3}
    - time: 0.96666664
      value: {fileID: 21300000, guid: 4411284880b54254c8f6351dc1306bf3, type: 3}
    - time: 1
      value: {fileID: 21300000, guid: 0ee8f84c682c35847a835a30b831c069, type: 3}
    - time: 1.0333333
      value: {fileID: 21300000, guid: a6b1066fa01f83f428fe15bdccb9fd25, type: 3}
    - time: 1.0833334
      value: {fileID: 21300000, guid: f51f82579d48c6b44b2b9b775f9c25de, type: 3}
    - time: 1.1333333
      value: {fileID: 21300000, guid: 43feed6214e14c34cbdd884af8f0556b, type: 3}
    - time: 1.1666666
      value: {fileID: 21300000, guid: c5dc8a9ee8447ed41b766de766d642e2, type: 3}
    - time: 1.2
      value: {fileID: 21300000, guid: f48ed0076b0feae4789db1e21962d505, type: 3}
    - time: 1.25
      value: {fileID: 21300000, guid: 69e3eb8a323bc144bbac2fbfd08541a9, type: 3}
    - time: 1.2666667
      value: {fileID: 21300000, guid: 271c27df155cf7b46ba66f83897cf187, type: 3}
    - time: 1.3166667
      value: {fileID: 21300000, guid: 0eb73570c0a10834b8f2f8ebfa0aecae, type: 3}
    - time: 1.35
      value: {fileID: 21300000, guid: 4272bd4dd6412984db67c74a4099351b, type: 3}
    - time: 1.4
      value: {fileID: 21300000, guid: 576ab4f17f2d160418c6f024e72f8d7b, type: 3}
    - time: 1.4333333
      value: {fileID: 21300000, guid: 6a1e3ac70030d794cb04dd50fe7eb535, type: 3}
    - time: 1.4833333
      value: {fileID: 21300000, guid: b3bda32963c99cf47b27f4e2b4ffc6fc, type: 3}
    - time: 1.5166667
      value: {fileID: 21300000, guid: 4816678801c91754f832f65b534cf681, type: 3}
    - time: 1.5666667
      value: {fileID: 21300000, guid: cef016841c1d0c44c8bf0ed2b1922da6, type: 3}
    - time: 1.6
      value: {fileID: 21300000, guid: 89bfd69097e2d914082c11cc2a44c6d4, type: 3}
    - time: 1.65
      value: {fileID: 21300000, guid: d980342888d26614088fad3c79ff6092, type: 3}
    - time: 1.6833333
      value: {fileID: 21300000, guid: d067e8ae3cbd7dc45a82e856dd66cb61, type: 3}
    - time: 1.7333333
      value: {fileID: 21300000, guid: 9c91d0f9164440d4dbe1d3c57099ae72, type: 3}
    - time: 1.7666667
      value: {fileID: 21300000, guid: 83736198bcdb32942876080a2a840dde, type: 3}
    - time: 1.8166667
      value: {fileID: 21300000, guid: 1342e0f8d162b3340a77e9c791f92026, type: 3}
    - time: 1.85
      value: {fileID: 21300000, guid: e6414bcf3b2044c4fa82630eecb978c3, type: 3}
    - time: 1.9
      value: {fileID: 21300000, guid: 130adc85456efaf4b992b3a7c959a220, type: 3}
    - time: 1.9333333
      value: {fileID: 21300000, guid: 4852bb35a2dc4284481974b15bc35c41, type: 3}
    - time: 1.9833333
      value: {fileID: 21300000, guid: 63d2b2a2c562ab241b22ddb930cb367a, type: 3}
    - time: 2.0166667
      value: {fileID: 21300000, guid: 2507c6a4f9b442945899db406175e724, type: 3}
    - time: 2.0666666
      value: {fileID: 21300000, guid: 90f6053cae0f587498a2f1210006c5a0, type: 3}
    - time: 2.1
      value: {fileID: 21300000, guid: 1a3d51b410d121040838f2f9f3a0a168, type: 3}
    - time: 2.15
      value: {fileID: 21300000, guid: 2b4e7a96d796a954587da618946ca02b, type: 3}
    - time: 2.1833334
      value: {fileID: 21300000, guid: 8396289a19631ce4d83ee30ee5f4156b, type: 3}
    - time: 2.2333333
      value: {fileID: 21300000, guid: 485d79a387bc4f64383b4f1c49b5c91b, type: 3}
    - time: 2.2666667
      value: {fileID: 21300000, guid: 289ebaee5fc230d47a9ddd9266235416, type: 3}
    - time: 2.3166666
      value: {fileID: 21300000, guid: 44407a09c51b53740a2ce244d5134782, type: 3}
    - time: 2.35
      value: {fileID: 21300000, guid: 50d763f61579b4b4687beafdc809ae41, type: 3}
    - time: 2.4
      value: {fileID: 21300000, guid: 441f68e78f019874a8ee22a7e2ad97ad, type: 3}
    - time: 2.4333334
      value: {fileID: 21300000, guid: e420fa5b349745146a564e901a7a4afe, type: 3}
    - time: 2.4833333
      value: {fileID: 21300000, guid: dba61d05e4d9e0b42a62598600428d4f, type: 3}
    - time: 2.5166667
      value: {fileID: 21300000, guid: 75dd7bccae5f6ee4da3c0f3c308f476e, type: 3}
    - time: 2.5666666
      value: {fileID: 21300000, guid: c32b8e907a6baa94780bb78b6d3a0253, type: 3}
    - time: 2.6
      value: {fileID: 21300000, guid: 32336a1682c234f45865918ae8a8eeb0, type: 3}
    - time: 2.65
      value: {fileID: 21300000, guid: 709cb04106c554848a16d7c202105867, type: 3}
    - time: 2.6833334
      value: {fileID: 21300000, guid: 453cecff0871cb0418957de69ba53d6a, type: 3}
    - time: 2.7333333
      value: {fileID: 21300000, guid: bf559dbfeac289145b6b5c6e6f0ffcf9, type: 3}
    - time: 2.7666667
      value: {fileID: 21300000, guid: 4a9926d8106a6b54e8d448c45cd9a967, type: 3}
    - time: 2.8166666
      value: {fileID: 21300000, guid: 23e8f16b339719b4d943ee8fe42dad84, type: 3}
    - time: 2.85
      value: {fileID: 21300000, guid: 159c565c77dbadd4699065c59f556935, type: 3}
    - time: 2.9
      value: {fileID: 21300000, guid: ffabb24cdb4010b49b324588ad9a55e4, type: 3}
    - time: 2.9333334
      value: {fileID: 21300000, guid: fb5675ce58b8d5442a6e290ad3776329, type: 3}
    - time: 2.9833333
      value: {fileID: 21300000, guid: 04cb930029461114cb528701504f2041, type: 3}
    - time: 3.0166667
      value: {fileID: 21300000, guid: e9ca50feca904b144a4e8283e79eb2c6, type: 3}
    - time: 3.0666666
      value: {fileID: 21300000, guid: e0f5736451b683a4fa76150c1b43570d, type: 3}
    - time: 3.1
      value: {fileID: 21300000, guid: 2b0c6110cf986084dad58ff3259b826b, type: 3}
    - time: 3.15
      value: {fileID: 21300000, guid: 73781da4e9d90d545b0595c411ef6803, type: 3}
    - time: 3.1833334
      value: {fileID: 21300000, guid: 1782609a229a5f64f92ae29f6075b55f, type: 3}
    - time: 3.2333333
      value: {fileID: 21300000, guid: b018d355f765c9045a1c3efe20a3e9f6, type: 3}
    - time: 3.2666667
      value: {fileID: 21300000, guid: 91a90db74b3dbc445a427387a8c1f575, type: 3}
    - time: 3.3166666
      value: {fileID: 21300000, guid: aa5faa0948abf3445a6b9ea24d78b0ad, type: 3}
    - time: 3.35
      value: {fileID: 21300000, guid: 1cb9e03307d671c4ea140da8d7400d6a, type: 3}
    - time: 3.4
      value: {fileID: 21300000, guid: 5c71b338c17de4e4bba8ea2b29bd7d51, type: 3}
    - time: 3.4333334
      value: {fileID: 21300000, guid: 076e3711c0fd17e4985ff1db6e8d6273, type: 3}
    - time: 3.4833333
      value: {fileID: 21300000, guid: 32bef5e73fe8ba5488cc6a0c53a4db25, type: 3}
    - time: 3.5166667
      value: {fileID: 21300000, guid: f0c53acd293526b4bb68ed8c77562d86, type: 3}
    - time: 3.5666666
      value: {fileID: 21300000, guid: 343f8767c24568d4bb912fdad5073891, type: 3}
    - time: 3.6
      value: {fileID: 21300000, guid: 4c2986fed36bf744d8593b6c7538e44f, type: 3}
    - time: 3.65
      value: {fileID: 21300000, guid: 7f9c1ef638abdcf4e84e294608f180b4, type: 3}
    - time: 3.6833334
      value: {fileID: 21300000, guid: 460c085f71260c2479592b9a332604e7, type: 3}
    - time: 3.7333333
      value: {fileID: 21300000, guid: 22d761e61d7ab944ca017e7994b3ae61, type: 3}
    - time: 3.75
      value: {fileID: 21300000, guid: 53a2379531f36224092115648f2901a4, type: 3}
    - time: 3.7833333
      value: {fileID: 21300000, guid: d7c64af8e293a7048883aa82bcdadeb4, type: 3}
    - time: 3.8333333
      value: {fileID: 21300000, guid: 5f0a657208ba2754fbe2205fece35c38, type: 3}
    - time: 3.8666666
      value: {fileID: 21300000, guid: 0cda6de5a14fd7f4580854e0e4553195, type: 3}
    - time: 3.9166667
      value: {fileID: 21300000, guid: 996585360a7b4e946a5235a88e5683fb, type: 3}
    - time: 3.9666667
      value: {fileID: 21300000, guid: c0153492efb646b4da1dae6c8a0f98a6, type: 3}
    - time: 4
      value: {fileID: 21300000, guid: cb781b29c9e72fc4a8bb11a166dfe408, type: 3}
    - time: 4.0333333
      value: {fileID: 21300000, guid: 6adc9b96a21f13140a2018c03c41ce9c, type: 3}
    - time: 4.0833335
      value: {fileID: 21300000, guid: 7cc5cee5a0a2c2740b763a9a06ee0fc7, type: 3}
    - time: 4.133333
      value: {fileID: 21300000, guid: 5a6a0b3d06fa2f5409a9dc07dc12665b, type: 3}
    - time: 4.1666665
      value: {fileID: 21300000, guid: 41dc0b5b920a724469ccdb7dab9e8d40, type: 3}
    - time: 4.2
      value: {fileID: 21300000, guid: 8f00f737de0df7042a39505fba08e19b, type: 3}
    - time: 4.25
      value: {fileID: 21300000, guid: 7d08a95ca1ec6a946b85340c1fc3b521, type: 3}
    - time: 4.3
      value: {fileID: 21300000, guid: b91f4373d6dc437499c2df34553c4cbd, type: 3}
    - time: 4.3333335
      value: {fileID: 21300000, guid: 759dfa905ecb3084cbc518efce707b3a, type: 3}
    - time: 4.366667
      value: {fileID: 21300000, guid: 7c6f3c02a50e77e47b7e224e570eb55c, type: 3}
    - time: 4.4166665
      value: {fileID: 21300000, guid: 612ca20e8f543da4f994fbc939afdccf, type: 3}
    - time: 4.45
      value: {fileID: 21300000, guid: 02851c4db0868f44f9da845260779da9, type: 3}
    - time: 4.5
      value: {fileID: 21300000, guid: be065438403f2d24f82d52e9a551cc0b, type: 3}
    - time: 4.55
      value: {fileID: 21300000, guid: f3bcae60136d8d44288b13d322f3ceca, type: 3}
    - time: 4.5833335
      value: {fileID: 21300000, guid: de4b2ca5a4054e04daa401af54852be7, type: 3}
    - time: 4.633333
      value: {fileID: 21300000, guid: 2d1cef61f54531b4693cbde56ee19cd1, type: 3}
    - time: 4.6666665
      value: {fileID: 21300000, guid: 71b35b67f6e27644b9cef96eb96613b3, type: 3}
    - time: 4.7
      value: {fileID: 21300000, guid: f5e20b7b7cde7c0479b8b63013f44f25, type: 3}
    - time: 4.75
      value: {fileID: 21300000, guid: 84d6a7187113de44cadd32c74022b5fb, type: 3}
    - time: 4.8
      value: {fileID: 21300000, guid: 5e350289c1b941d4ea48e733b8f84f79, type: 3}
    - time: 4.8333335
      value: {fileID: 21300000, guid: 3179a9d1fba272249ade1db9c76e9de7, type: 3}
    - time: 4.866667
      value: {fileID: 21300000, guid: 4130373223f1d5d4ca41c645d923ef89, type: 3}
    - time: 4.9166665
      value: {fileID: 21300000, guid: 266af966e8898dd4b92d532c0d3258fa, type: 3}
    - time: 4.9666667
      value: {fileID: 21300000, guid: d7fb44ba0f6e37d4e81ec5be4f15397a, type: 3}
    - time: 5
      value: {fileID: 21300000, guid: dc6646366de184e46822f19abd4648a3, type: 3}
    attribute: m_Sprite
    path: 
    classID: 212
    script: {fileID: 0}
  m_SampleRate: 60
  m_WrapMode: 0
  m_Bounds:
    m_Center: {x: 0, y: 0, z: 0}
    m_Extent: {x: 0, y: 0, z: 0}
  m_ClipBindingConstant:
    genericBindings:
    - serializedVersion: 2
      path: 0
      attribute: 0
      script: {fileID: 0}
      typeID: 212
      customType: 23
      isPPtrCurve: 1
    pptrCurveMapping:
    - {fileID: 21300000, guid: 18a6eb32e40f555428b4714afd0cfaf7, type: 3}
    - {fileID: 21300000, guid: f71cd75c24b94fd4f87bd6581eb88e29, type: 3}
    - {fileID: 21300000, guid: 66d3755082abc5b4f8a08326f5c3f185, type: 3}
    - {fileID: 21300000, guid: 803b6cce92055ba4384ef746e47bffe9, type: 3}
    - {fileID: 21300000, guid: ddff6c5f91ee8ff4bbcdbc67f04c99c0, type: 3}
    - {fileID: 21300000, guid: ad72c264a05961c479cec92dd26da984, type: 3}
    - {fileID: 21300000, guid: 7851275abfb3f7f4e82aa5f8b327ec25, type: 3}
    - {fileID: 21300000, guid: 35ed800a0a8b1ff4899421f738eac791, type: 3}
    - {fileID: 21300000, guid: f800486cb1276e64ba076cda5ebd1cf3, type: 3}
    - {fileID: 21300000, guid: eb3cc7a8d510a2c45a2e890ef7517343, type: 3}
    - {fileID: 21300000, guid: 7a85ba5a0c7c1704f905b421850d013b, type: 3}
    - {fileID: 21300000, guid: b1e2b3e31b7e3e5478044a3fb926e493, type: 3}
    - {fileID: 21300000, guid: 721c0be397566f24fbab61cdd41304e6, type: 3}
    - {fileID: 21300000, guid: 53f2f357364aa2742b1476fbc034aa22, type: 3}
    - {fileID: 21300000, guid: ba24377cd2461aa47b5510f21dd48fff, type: 3}
    - {fileID: 21300000, guid: 76489cddfab91fd4cb877e1a42515a17, type: 3}
    - {fileID: 21300000, guid: b7d30a294d0ad994e8cf72484e24a306, type: 3}
    - {fileID: 21300000, guid: fd20a477639a26d4c99af53272f890cd, type: 3}
    - {fileID: 21300000, guid: 627423f905ea0e041992110f214015cb, type: 3}
    - {fileID: 21300000, guid: 7dc8c9b6a7b9b0b4d906ca9f2a82a3b7, type: 3}
    - {fileID: 21300000, guid: fbc0453405a3c79438a3c2da047b4bb5, type: 3}
    - {fileID: 21300000, guid: 4bc60011a2ab2d74a99cd340c22a7bf3, type: 3}
    - {fileID: 21300000, guid: cc7a5aa00c6513442a436fe0f4fda958, type: 3}
    - {fileID: 21300000, guid: 4411284880b54254c8f6351dc1306bf3, type: 3}
    - {fileID: 21300000, guid: 0ee8f84c682c35847a835a30b831c069, type: 3}
    - {fileID: 21300000, guid: a6b1066fa01f83f428fe15bdccb9fd25, type: 3}
    - {fileID: 21300000, guid: f51f82579d48c6b44b2b9b775f9c25de, type: 3}
    - {fileID: 21300000, guid: 43feed6214e14c34cbdd884af8f0556b, type: 3}
    - {fileID: 21300000, guid: c5dc8a9ee8447ed41b766de766d642e2, type: 3}
    - {fileID: 21300000, guid: f48ed0076b0feae4789db1e21962d505, type: 3}
    - {fileID: 21300000, guid: 69e3eb8a323bc144bbac2fbfd08541a9, type: 3}
    - {fileID: 21300000, guid: 271c27df155cf7b46ba66f83897cf187, type: 3}
    - {fileID: 21300000, guid: 0eb73570c0a10834b8f2f8ebfa0aecae, type: 3}
    - {fileID: 21300000, guid: 4272bd4dd6412984db67c74a4099351b, type: 3}
    - {fileID: 21300000, guid: 576ab4f17f2d160418c6f024e72f8d7b, type: 3}
    - {fileID: 21300000, guid: 6a1e3ac70030d794cb04dd50fe7eb535, type: 3}
    - {fileID: 21300000, guid: b3bda32963c99cf47b27f4e2b4ffc6fc, type: 3}
    - {fileID: 21300000, guid: 4816678801c91754f832f65b534cf681, type: 3}
    - {fileID: 21300000, guid: cef016841c1d0c44c8bf0ed2b1922da6, type: 3}
    - {fileID: 21300000, guid: 89bfd69097e2d914082c11cc2a44c6d4, type: 3}
    - {fileID: 21300000, guid: d980342888d26614088fad3c79ff6092, type: 3}
    - {fileID: 21300000, guid: d067e8ae3cbd7dc45a82e856dd66cb61, type: 3}
    - {fileID: 21300000, guid: 9c91d0f9164440d4dbe1d3c57099ae72, type: 3}
    - {fileID: 21300000, guid: 83736198bcdb32942876080a2a840dde, type: 3}
    - {fileID: 21300000, guid: 1342e0f8d162b3340a77e9c791f92026, type: 3}
    - {fileID: 21300000, guid: e6414bcf3b2044c4fa82630eecb978c3, type: 3}
    - {fileID: 21300000, guid: 130adc85456efaf4b992b3a7c959a220, type: 3}
    - {fileID: 21300000, guid: 4852bb35a2dc4284481974b15bc35c41, type: 3}
    - {fileID: 21300000, guid: 63d2b2a2c562ab241b22ddb930cb367a, type: 3}
    - {fileID: 21300000, guid: 2507c6a4f9b442945899db406175e724, type: 3}
    - {fileID: 21300000, guid: 90f6053cae0f587498a2f1210006c5a0, type: 3}
    - {fileID: 21300000, guid: 1a3d51b410d121040838f2f9f3a0a168, type: 3}
    - {fileID: 21300000, guid: 2b4e7a96d796a954587da618946ca02b, type: 3}
    - {fileID: 21300000, guid: 8396289a19631ce4d83ee30ee5f4156b, type: 3}
    - {fileID: 21300000, guid: 485d79a387bc4f64383b4f1c49b5c91b, type: 3}
    - {fileID: 21300000, guid: 289ebaee5fc230d47a9ddd9266235416, type: 3}
    - {fileID: 21300000, guid: 44407a09c51b53740a2ce244d5134782, type: 3}
    - {fileID: 21300000, guid: 50d763f61579b4b4687beafdc809ae41, type: 3}
    - {fileID: 21300000, guid: 441f68e78f019874a8ee22a7e2ad97ad, type: 3}
    - {fileID: 21300000, guid: e420fa5b349745146a564e901a7a4afe, type: 3}
    - {fileID: 21300000, guid: dba61d05e4d9e0b42a62598600428d4f, type: 3}
    - {fileID: 21300000, guid: 75dd7bccae5f6ee4da3c0f3c308f476e, type: 3}
    - {fileID: 21300000, guid: c32b8e907a6baa94780bb78b6d3a0253, type: 3}
    - {fileID: 21300000, guid: 32336a1682c234f45865918ae8a8eeb0, type: 3}
    - {fileID: 21300000, guid: 709cb04106c554848a16d7c202105867, type: 3}
    - {fileID: 21300000, guid: 453cecff0871cb0418957de69ba53d6a, type: 3}
    - {fileID: 21300000, guid: bf559dbfeac289145b6b5c6e6f0ffcf9, type: 3}
    - {fileID: 21300000, guid: 4a9926d8106a6b54e8d448c45cd9a967, type: 3}
    - {fileID: 21300000, guid: 23e8f16b339719b4d943ee8fe42dad84, type: 3}
    - {fileID: 21300000, guid: 159c565c77dbadd4699065c59f556935, type: 3}
    - {fileID: 21300000, guid: ffabb24cdb4010b49b324588ad9a55e4, type: 3}
    - {fileID: 21300000, guid: fb5675ce58b8d5442a6e290ad3776329, type: 3}
    - {fileID: 21300000, guid: 04cb930029461114cb528701504f2041, type: 3}
    - {fileID: 21300000, guid: e9ca50feca904b144a4e8283e79eb2c6, type: 3}
    - {fileID: 21300000, guid: e0f5736451b683a4fa76150c1b43570d, type: 3}
    - {fileID: 21300000, guid: 2b0c6110cf986084dad58ff3259b826b, type: 3}
    - {fileID: 21300000, guid: 73781da4e9d90d545b0595c411ef6803, type: 3}
    - {fileID: 21300000, guid: 1782609a229a5f64f92ae29f6075b55f, type: 3}
    - {fileID: 21300000, guid: b018d355f765c9045a1c3efe20a3e9f6, type: 3}
    - {fileID: 21300000, guid: 91a90db74b3dbc445a427387a8c1f575, type: 3}
    - {fileID: 21300000, guid: aa5faa0948abf3445a6b9ea24d78b0ad, type: 3}
    - {fileID: 21300000, guid: 1cb9e03307d671c4ea140da8d7400d6a, type: 3}
    - {fileID: 21300000, guid: 5c71b338c17de4e4bba8ea2b29bd7d51, type: 3}
    - {fileID: 21300000, guid: 076e3711c0fd17e4985ff1db6e8d6273, type: 3}
    - {fileID: 21300000, guid: 32bef5e73fe8ba5488cc6a0c53a4db25, type: 3}
    - {fileID: 21300000, guid: f0c53acd293526b4bb68ed8c77562d86, type: 3}
    - {fileID: 21300000, guid: 343f8767c24568d4bb912fdad5073891, type: 3}
    - {fileID: 21300000, guid: 4c2986fed36bf744d8593b6c7538e44f, type: 3}
    - {fileID: 21300000, guid: 7f9c1ef638abdcf4e84e294608f180b4, type: 3}
    - {fileID: 21300000, guid: 460c085f71260c2479592b9a332604e7, type: 3}
    - {fileID: 21300000, guid: 22d761e61d7ab944ca017e7994b3ae61, type: 3}
    - {fileID: 21300000, guid: 53a2379531f36224092115648f2901a4, type: 3}
    - {fileID: 21300000, guid: d7c64af8e293a7048883aa82bcdadeb4, type: 3}
    - {fileID: 21300000, guid: 5f0a657208ba2754fbe2205fece35c38, type: 3}
    - {fileID: 21300000, guid: 0cda6de5a14fd7f4580854e0e4553195, type: 3}
    - {fileID: 21300000, guid: 996585360a7b4e946a5235a88e5683fb, type: 3}
    - {fileID: 21300000, guid: c0153492efb646b4da1dae6c8a0f98a6, type: 3}
    - {fileID: 21300000, guid: cb781b29c9e72fc4a8bb11a166dfe408, type: 3}
    - {fileID: 21300000, guid: 6adc9b96a21f13140a2018c03c41ce9c, type: 3}
    - {fileID: 21300000, guid: 7cc5cee5a0a2c2740b763a9a06ee0fc7, type: 3}
    - {fileID: 21300000, guid: 5a6a0b3d06fa2f5409a9dc07dc12665b, type: 3}
    - {fileID: 21300000, guid: 41dc0b5b920a724469ccdb7dab9e8d40, type: 3}
    - {fileID: 21300000, guid: 8f00f737de0df7042a39505fba08e19b, type: 3}
    - {fileID: 21300000, guid: 7d08a95ca1ec6a946b85340c1fc3b521, type: 3}
    - {fileID: 21300000, guid: b91f4373d6dc437499c2df34553c4cbd, type: 3}
    - {fileID: 21300000, guid: 759dfa905ecb3084cbc518efce707b3a, type: 3}
    - {fileID: 21300000, guid: 7c6f3c02a50e77e47b7e224e570eb55c, type: 3}
    - {fileID: 21300000, guid: 612ca20e8f543da4f994fbc939afdccf, type: 3}
    - {fileID: 21300000, guid: 02851c4db0868f44f9da845260779da9, type: 3}
    - {fileID: 21300000, guid: be065438403f2d24f82d52e9a551cc0b, type: 3}
    - {fileID: 21300000, guid: f3bcae60136d8d44288b13d322f3ceca, type: 3}
    - {fileID: 21300000, guid: de4b2ca5a4054e04daa401af54852be7, type: 3}
    - {fileID: 21300000, guid: 2d1cef61f54531b4693cbde56ee19cd1, type: 3}
    - {fileID: 21300000, guid: 71b35b67f6e27644b9cef96eb96613b3, type: 3}
    - {fileID: 21300000, guid: f5e20b7b7cde7c0479b8b63013f44f25, type: 3}
    - {fileID: 21300000, guid: 84d6a7187113de44cadd32c74022b5fb, type: 3}
    - {fileID: 21300000, guid: 5e350289c1b941d4ea48e733b8f84f79, type: 3}
    - {fileID: 21300000, guid: 3179a9d1fba272249ade1db9c76e9de7, type: 3}
    - {fileID: 21300000, guid: 4130373223f1d5d4ca41c645d923ef89, type: 3}
    - {fileID: 21300000, guid: 266af966e8898dd4b92d532c0d3258fa, type: 3}
    - {fileID: 21300000, guid: d7fb44ba0f6e37d4e81ec5be4f15397a, type: 3}
    - {fileID: 21300000, guid: dc6646366de184e46822f19abd4648a3, type: 3}
  m_AnimationClipSettings:
    serializedVersion: 2
    m_AdditiveReferencePoseClip: {fileID: 0}
    m_AdditiveReferencePoseTime: 0
    m_StartTime: 0
    m_StopTime: 5.016667
    m_OrientationOffsetY: 0
    m_Level: 0
    m_CycleOffset: 0
    m_HasAdditiveReferencePose: 0
    m_LoopTime: 1
    m_LoopBlend: 0
    m_LoopBlendOrientation: 0
    m_LoopBlendPositionY: 0
    m_LoopBlendPositionXZ: 0
    m_KeepOriginalOrientation: 0
    m_KeepOriginalPositionY: 1
    m_KeepOriginalPositionXZ: 0
    m_HeightFromFeet: 0
    m_Mirror: 0
  m_EditorCurves: []
  m_EulerEditorCurves: []
  m_HasGenericRootTransform: 0
  m_HasMotionFloatCurves: 0
  m_GenerateMotionCurves: 0
  m_Events: []
