%YAML 1.1
%TAG !u! tag:unity3d.com,2011:
--- !u!78 &1
TagManager:
  serializedVersion: 2
  tags:
  - TouchIndicator
  - Level
  - Manager
  - Collectible
  - GapInMachine
  - Wagon
  - CamTarget
  - TouchAnim
  - ReactionStartPosition
  layers:
  - Default
  - TransparentFX
  - Ignore Raycast
  - 
  - Water
  - UI
  - 
  - 
  - Level
  - 
  - 
  - 
  - 
  - 
  - 
  - 
  - 
  - 
  - 
  - 
  - 
  - 
  - 
  - 
  - 
  - 
  - 
  - 
  - 
  - 
  - 
  - 
  m_SortingLayers:
  - name: Default
    uniqueID: 0
    locked: 0
  - name: World
    uniqueID: 1373150927
    locked: 0
  - name: Objects
    uniqueID: 952195337
    locked: 0
  - name: UI
    uniqueID: 4239493889
    locked: 0
  - name: Hebel
    uniqueID: 2413326269
    locked: 0
  - name: Rolle
    uniqueID: 2260754321
    locked: 0
  - name: Slow
    uniqueID: 4201901101
    locked: 0
  - name: Player
    uniqueID: 1183732935
    locked: 0
  - name: TouchIndicator
    uniqueID: 593834927
    locked: 0
