-debug
-target:library
-nowarn:0169
-langversion:7
-out:"Y:/Files/Documents/PhiYoLa 2D/HybridECS/Temp/Unity.Properties.dll"
-nostdlib
-unsafe
-r:P:\Unity\2018.1.6f1\Editor\Data\Managed/UnityEngine/UnityEngine.dll
-r:P:\Unity\2018.1.6f1\Editor\Data\Managed/UnityEngine/UnityEngine.AIModule.dll
-r:P:\Unity\2018.1.6f1\Editor\Data\Managed/UnityEngine/UnityEngine.ARModule.dll
-r:P:\Unity\2018.1.6f1\Editor\Data\Managed/UnityEngine/UnityEngine.AccessibilityModule.dll
-r:P:\Unity\2018.1.6f1\Editor\Data\Managed/UnityEngine/UnityEngine.AnimationModule.dll
-r:P:\Unity\2018.1.6f1\Editor\Data\Managed/UnityEngine/UnityEngine.AssetBundleModule.dll
-r:P:\Unity\2018.1.6f1\Editor\Data\Managed/UnityEngine/UnityEngine.AudioModule.dll
-r:P:\Unity\2018.1.6f1\Editor\Data\Managed/UnityEngine/UnityEngine.BaselibModule.dll
-r:P:\Unity\2018.1.6f1\Editor\Data\Managed/UnityEngine/UnityEngine.ClothModule.dll
-r:P:\Unity\2018.1.6f1\Editor\Data\Managed/UnityEngine/UnityEngine.CloudWebServicesModule.dll
-r:P:\Unity\2018.1.6f1\Editor\Data\Managed/UnityEngine/UnityEngine.ClusterInputModule.dll
-r:P:\Unity\2018.1.6f1\Editor\Data\Managed/UnityEngine/UnityEngine.ClusterRendererModule.dll
-r:P:\Unity\2018.1.6f1\Editor\Data\Managed/UnityEngine/UnityEngine.CoreModule.dll
-r:P:\Unity\2018.1.6f1\Editor\Data\Managed/UnityEngine/UnityEngine.CrashReportingModule.dll
-r:P:\Unity\2018.1.6f1\Editor\Data\Managed/UnityEngine/UnityEngine.DirectorModule.dll
-r:P:\Unity\2018.1.6f1\Editor\Data\Managed/UnityEngine/UnityEngine.FacebookModule.dll
-r:P:\Unity\2018.1.6f1\Editor\Data\Managed/UnityEngine/UnityEngine.GameCenterModule.dll
-r:P:\Unity\2018.1.6f1\Editor\Data\Managed/UnityEngine/UnityEngine.GridModule.dll
-r:P:\Unity\2018.1.6f1\Editor\Data\Managed/UnityEngine/UnityEngine.HotReloadModule.dll
-r:P:\Unity\2018.1.6f1\Editor\Data\Managed/UnityEngine/UnityEngine.IMGUIModule.dll
-r:P:\Unity\2018.1.6f1\Editor\Data\Managed/UnityEngine/UnityEngine.ImageConversionModule.dll
-r:P:\Unity\2018.1.6f1\Editor\Data\Managed/UnityEngine/UnityEngine.InputModule.dll
-r:P:\Unity\2018.1.6f1\Editor\Data\Managed/UnityEngine/UnityEngine.JSONSerializeModule.dll
-r:P:\Unity\2018.1.6f1\Editor\Data\Managed/UnityEngine/UnityEngine.ParticleSystemModule.dll
-r:P:\Unity\2018.1.6f1\Editor\Data\Managed/UnityEngine/UnityEngine.ParticlesLegacyModule.dll
-r:P:\Unity\2018.1.6f1\Editor\Data\Managed/UnityEngine/UnityEngine.PerformanceReportingModule.dll
-r:P:\Unity\2018.1.6f1\Editor\Data\Managed/UnityEngine/UnityEngine.PhysicsModule.dll
-r:P:\Unity\2018.1.6f1\Editor\Data\Managed/UnityEngine/UnityEngine.Physics2DModule.dll
-r:P:\Unity\2018.1.6f1\Editor\Data\Managed/UnityEngine/UnityEngine.ScreenCaptureModule.dll
-r:P:\Unity\2018.1.6f1\Editor\Data\Managed/UnityEngine/UnityEngine.SharedInternalsModule.dll
-r:P:\Unity\2018.1.6f1\Editor\Data\Managed/UnityEngine/UnityEngine.SpatialTrackingModule.dll
-r:P:\Unity\2018.1.6f1\Editor\Data\Managed/UnityEngine/UnityEngine.SpriteMaskModule.dll
-r:P:\Unity\2018.1.6f1\Editor\Data\Managed/UnityEngine/UnityEngine.SpriteShapeModule.dll
-r:P:\Unity\2018.1.6f1\Editor\Data\Managed/UnityEngine/UnityEngine.StyleSheetsModule.dll
-r:P:\Unity\2018.1.6f1\Editor\Data\Managed/UnityEngine/UnityEngine.SubstanceModule.dll
-r:P:\Unity\2018.1.6f1\Editor\Data\Managed/UnityEngine/UnityEngine.TLSModule.dll
-r:P:\Unity\2018.1.6f1\Editor\Data\Managed/UnityEngine/UnityEngine.TerrainModule.dll
-r:P:\Unity\2018.1.6f1\Editor\Data\Managed/UnityEngine/UnityEngine.TerrainPhysicsModule.dll
-r:P:\Unity\2018.1.6f1\Editor\Data\Managed/UnityEngine/UnityEngine.TextRenderingModule.dll
-r:P:\Unity\2018.1.6f1\Editor\Data\Managed/UnityEngine/UnityEngine.TilemapModule.dll
-r:P:\Unity\2018.1.6f1\Editor\Data\Managed/UnityEngine/UnityEngine.TimelineModule.dll
-r:P:\Unity\2018.1.6f1\Editor\Data\Managed/UnityEngine/UnityEngine.UIModule.dll
-r:P:\Unity\2018.1.6f1\Editor\Data\Managed/UnityEngine/UnityEngine.UIElementsModule.dll
-r:P:\Unity\2018.1.6f1\Editor\Data\Managed/UnityEngine/UnityEngine.UNETModule.dll
-r:P:\Unity\2018.1.6f1\Editor\Data\Managed/UnityEngine/UnityEngine.UmbraModule.dll
-r:P:\Unity\2018.1.6f1\Editor\Data\Managed/UnityEngine/UnityEngine.UnityAnalyticsModule.dll
-r:P:\Unity\2018.1.6f1\Editor\Data\Managed/UnityEngine/UnityEngine.UnityConnectModule.dll
-r:P:\Unity\2018.1.6f1\Editor\Data\Managed/UnityEngine/UnityEngine.UnityWebRequestModule.dll
-r:P:\Unity\2018.1.6f1\Editor\Data\Managed/UnityEngine/UnityEngine.UnityWebRequestAssetBundleModule.dll
-r:P:\Unity\2018.1.6f1\Editor\Data\Managed/UnityEngine/UnityEngine.UnityWebRequestAudioModule.dll
-r:P:\Unity\2018.1.6f1\Editor\Data\Managed/UnityEngine/UnityEngine.UnityWebRequestTextureModule.dll
-r:P:\Unity\2018.1.6f1\Editor\Data\Managed/UnityEngine/UnityEngine.UnityWebRequestWWWModule.dll
-r:P:\Unity\2018.1.6f1\Editor\Data\Managed/UnityEngine/UnityEngine.VRModule.dll
-r:P:\Unity\2018.1.6f1\Editor\Data\Managed/UnityEngine/UnityEngine.VehiclesModule.dll
-r:P:\Unity\2018.1.6f1\Editor\Data\Managed/UnityEngine/UnityEngine.VideoModule.dll
-r:P:\Unity\2018.1.6f1\Editor\Data\Managed/UnityEngine/UnityEngine.WebModule.dll
-r:P:\Unity\2018.1.6f1\Editor\Data\Managed/UnityEngine/UnityEngine.WindModule.dll
-r:P:\Unity\2018.1.6f1\Editor\Data\Managed/UnityEngine/UnityEngine.XRModule.dll
-r:P:\Unity\2018.1.6f1\Editor\Data\Managed/UnityEditor.dll
-r:P:\Unity\2018.1.6f1\Editor\Data\Managed/Unity.Locator.dll
-r:P:/Unity/2018.1.6f1/Editor/Data/UnityExtensions/Unity/GUISystem/UnityEngine.UI.dll
-r:P:/Unity/2018.1.6f1/Editor/Data/UnityExtensions/Unity/GUISystem/Editor/UnityEditor.UI.dll
-r:P:/Unity/2018.1.6f1/Editor/Data/UnityExtensions/Unity/Networking/UnityEngine.Networking.dll
-r:P:/Unity/2018.1.6f1/Editor/Data/UnityExtensions/Unity/Networking/Editor/UnityEditor.Networking.dll
-r:P:/Unity/2018.1.6f1/Editor/Data/UnityExtensions/Unity/Timeline/RuntimeEditor/UnityEngine.Timeline.dll
-r:P:/Unity/2018.1.6f1/Editor/Data/UnityExtensions/Unity/Timeline/Editor/UnityEditor.Timeline.dll
-r:P:/Unity/2018.1.6f1/Editor/Data/UnityExtensions/Unity/TreeEditor/Editor/UnityEditor.TreeEditor.dll
-r:P:/Unity/2018.1.6f1/Editor/Data/UnityExtensions/Unity/UIAutomation/UnityEngine.UIAutomation.dll
-r:P:/Unity/2018.1.6f1/Editor/Data/UnityExtensions/Unity/UIAutomation/Editor/UnityEditor.UIAutomation.dll
-r:P:/Unity/2018.1.6f1/Editor/Data/UnityExtensions/Unity/UnityGoogleAudioSpatializer/Editor/UnityEditor.GoogleAudioSpatializer.dll
-r:P:/Unity/2018.1.6f1/Editor/Data/UnityExtensions/Unity/UnityGoogleAudioSpatializer/RuntimeEditor/UnityEngine.GoogleAudioSpatializer.dll
-r:P:/Unity/2018.1.6f1/Editor/Data/UnityExtensions/Unity/UnityHoloLens/Editor/UnityEditor.HoloLens.dll
-r:P:/Unity/2018.1.6f1/Editor/Data/UnityExtensions/Unity/UnityHoloLens/RuntimeEditor/UnityEngine.HoloLens.dll
-r:P:/Unity/2018.1.6f1/Editor/Data/UnityExtensions/Unity/UnitySpatialTracking/Editor/UnityEditor.SpatialTracking.dll
-r:P:/Unity/2018.1.6f1/Editor/Data/UnityExtensions/Unity/UnitySpatialTracking/RuntimeEditor/UnityEngine.SpatialTracking.dll
-r:P:/Unity/2018.1.6f1/Editor/Data/UnityExtensions/Unity/UnityVR/Editor/UnityEditor.VR.dll
-r:P:/Unity/2018.1.6f1/Editor/Data/Managed/UnityEditor.Graphs.dll
-r:P:/Unity/2018.1.6f1/Editor/Data/PlaybackEngines/AndroidPlayer/UnityEditor.Android.Extensions.dll
-r:P:/Unity/2018.1.6f1/Editor/Data/PlaybackEngines/iOSSupport/UnityEditor.iOS.Extensions.dll
-r:P:/Unity/2018.1.6f1/Editor/Data/PlaybackEngines/windowsstandalonesupport/UnityEditor.WindowsStandalone.Extensions.dll
-r:C:/Users/Yoshi/AppData/Local/Unity/cache/packages/packages.unity.com/com.unity.ads@2.0.8/Editor/UnityEditor.Advertisements.dll
-r:C:/Users/Yoshi/AppData/Local/Unity/cache/packages/packages.unity.com/com.unity.analytics@2.0.16/UnityEngine.Analytics.dll
-r:C:/Users/Yoshi/AppData/Local/Unity/cache/packages/packages.unity.com/com.unity.analytics@2.0.16/Editor/UnityEditor.Analytics.dll
-r:C:/Users/Yoshi/AppData/Local/Unity/cache/packages/packages.unity.com/com.unity.collections@0.0.9-preview.1/System.Runtime.CompilerServices.Unsafe.dll
-r:C:/Users/Yoshi/AppData/Local/Unity/cache/packages/packages.unity.com/com.unity.purchasing@2.0.1/UnityEngine.Purchasing.dll
-r:C:/Users/Yoshi/AppData/Local/Unity/cache/packages/packages.unity.com/com.unity.purchasing@2.0.1/Editor/UnityEditor.Purchasing.dll
-r:C:/Users/Yoshi/AppData/Local/Unity/cache/packages/packages.unity.com/com.unity.standardevents@1.0.13/UnityEngine.StandardEvents.dll
-r:"C:/Program Files (x86)/Microsoft Visual Studio Tools for Unity/15.0/Editor/SyntaxTree.VisualStudio.Unity.Bridge.dll"
-r:P:/Unity/2018.1.6f1/Editor/Data/PlaybackEngines/iOSSupport\UnityEditor.iOS.Extensions.Xcode.dll
-r:P:/Unity/2018.1.6f1/Editor/Data/PlaybackEngines/iOSSupport\UnityEditor.iOS.Extensions.Common.dll
-r:P:\Unity\2018.1.6f1\Editor\Data\MonoBleedingEdge\lib\mono\4.7.1-api\mscorlib.dll
-r:P:\Unity\2018.1.6f1\Editor\Data\MonoBleedingEdge\lib\mono\4.7.1-api\System.dll
-r:P:\Unity\2018.1.6f1\Editor\Data\MonoBleedingEdge\lib\mono\4.7.1-api\System.Core.dll
-r:P:\Unity\2018.1.6f1\Editor\Data\MonoBleedingEdge\lib\mono\4.7.1-api\System.Runtime.Serialization.dll
-r:P:\Unity\2018.1.6f1\Editor\Data\MonoBleedingEdge\lib\mono\4.7.1-api\System.Xml.dll
-r:P:\Unity\2018.1.6f1\Editor\Data\MonoBleedingEdge\lib\mono\4.7.1-api\System.Xml.Linq.dll
-r:P:\Unity\2018.1.6f1\Editor\Data\MonoBleedingEdge\lib\mono\4.7.1-api\System.Numerics.dll
-r:P:\Unity\2018.1.6f1\Editor\Data\MonoBleedingEdge\lib\mono\4.7.1-api\System.Numerics.Vectors.dll
-r:P:\Unity\2018.1.6f1\Editor\Data\MonoBleedingEdge\lib\mono\4.7.1-api\Facades\Microsoft.Win32.Primitives.dll
-r:P:\Unity\2018.1.6f1\Editor\Data\MonoBleedingEdge\lib\mono\4.7.1-api\Facades\netstandard.dll
-r:P:\Unity\2018.1.6f1\Editor\Data\MonoBleedingEdge\lib\mono\4.7.1-api\Facades\System.AppContext.dll
-r:P:\Unity\2018.1.6f1\Editor\Data\MonoBleedingEdge\lib\mono\4.7.1-api\Facades\System.Collections.Concurrent.dll
-r:P:\Unity\2018.1.6f1\Editor\Data\MonoBleedingEdge\lib\mono\4.7.1-api\Facades\System.Collections.dll
-r:P:\Unity\2018.1.6f1\Editor\Data\MonoBleedingEdge\lib\mono\4.7.1-api\Facades\System.Collections.NonGeneric.dll
-r:P:\Unity\2018.1.6f1\Editor\Data\MonoBleedingEdge\lib\mono\4.7.1-api\Facades\System.Collections.Specialized.dll
-r:P:\Unity\2018.1.6f1\Editor\Data\MonoBleedingEdge\lib\mono\4.7.1-api\Facades\System.ComponentModel.Annotations.dll
-r:P:\Unity\2018.1.6f1\Editor\Data\MonoBleedingEdge\lib\mono\4.7.1-api\Facades\System.ComponentModel.dll
-r:P:\Unity\2018.1.6f1\Editor\Data\MonoBleedingEdge\lib\mono\4.7.1-api\Facades\System.ComponentModel.EventBasedAsync.dll
-r:P:\Unity\2018.1.6f1\Editor\Data\MonoBleedingEdge\lib\mono\4.7.1-api\Facades\System.ComponentModel.Primitives.dll
-r:P:\Unity\2018.1.6f1\Editor\Data\MonoBleedingEdge\lib\mono\4.7.1-api\Facades\System.ComponentModel.TypeConverter.dll
-r:P:\Unity\2018.1.6f1\Editor\Data\MonoBleedingEdge\lib\mono\4.7.1-api\Facades\System.Console.dll
-r:P:\Unity\2018.1.6f1\Editor\Data\MonoBleedingEdge\lib\mono\4.7.1-api\Facades\System.Data.Common.dll
-r:P:\Unity\2018.1.6f1\Editor\Data\MonoBleedingEdge\lib\mono\4.7.1-api\Facades\System.Diagnostics.Contracts.dll
-r:P:\Unity\2018.1.6f1\Editor\Data\MonoBleedingEdge\lib\mono\4.7.1-api\Facades\System.Diagnostics.Debug.dll
-r:P:\Unity\2018.1.6f1\Editor\Data\MonoBleedingEdge\lib\mono\4.7.1-api\Facades\System.Diagnostics.FileVersionInfo.dll
-r:P:\Unity\2018.1.6f1\Editor\Data\MonoBleedingEdge\lib\mono\4.7.1-api\Facades\System.Diagnostics.Process.dll
-r:P:\Unity\2018.1.6f1\Editor\Data\MonoBleedingEdge\lib\mono\4.7.1-api\Facades\System.Diagnostics.StackTrace.dll
-r:P:\Unity\2018.1.6f1\Editor\Data\MonoBleedingEdge\lib\mono\4.7.1-api\Facades\System.Diagnostics.TextWriterTraceListener.dll
-r:P:\Unity\2018.1.6f1\Editor\Data\MonoBleedingEdge\lib\mono\4.7.1-api\Facades\System.Diagnostics.Tools.dll
-r:P:\Unity\2018.1.6f1\Editor\Data\MonoBleedingEdge\lib\mono\4.7.1-api\Facades\System.Diagnostics.TraceSource.dll
-r:P:\Unity\2018.1.6f1\Editor\Data\MonoBleedingEdge\lib\mono\4.7.1-api\Facades\System.Drawing.Primitives.dll
-r:P:\Unity\2018.1.6f1\Editor\Data\MonoBleedingEdge\lib\mono\4.7.1-api\Facades\System.Dynamic.Runtime.dll
-r:P:\Unity\2018.1.6f1\Editor\Data\MonoBleedingEdge\lib\mono\4.7.1-api\Facades\System.Globalization.Calendars.dll
-r:P:\Unity\2018.1.6f1\Editor\Data\MonoBleedingEdge\lib\mono\4.7.1-api\Facades\System.Globalization.dll
-r:P:\Unity\2018.1.6f1\Editor\Data\MonoBleedingEdge\lib\mono\4.7.1-api\Facades\System.Globalization.Extensions.dll
-r:P:\Unity\2018.1.6f1\Editor\Data\MonoBleedingEdge\lib\mono\4.7.1-api\Facades\System.IO.Compression.ZipFile.dll
-r:P:\Unity\2018.1.6f1\Editor\Data\MonoBleedingEdge\lib\mono\4.7.1-api\Facades\System.IO.dll
-r:P:\Unity\2018.1.6f1\Editor\Data\MonoBleedingEdge\lib\mono\4.7.1-api\Facades\System.IO.FileSystem.dll
-r:P:\Unity\2018.1.6f1\Editor\Data\MonoBleedingEdge\lib\mono\4.7.1-api\Facades\System.IO.FileSystem.DriveInfo.dll
-r:P:\Unity\2018.1.6f1\Editor\Data\MonoBleedingEdge\lib\mono\4.7.1-api\Facades\System.IO.FileSystem.Primitives.dll
-r:P:\Unity\2018.1.6f1\Editor\Data\MonoBleedingEdge\lib\mono\4.7.1-api\Facades\System.IO.FileSystem.Watcher.dll
-r:P:\Unity\2018.1.6f1\Editor\Data\MonoBleedingEdge\lib\mono\4.7.1-api\Facades\System.IO.IsolatedStorage.dll
-r:P:\Unity\2018.1.6f1\Editor\Data\MonoBleedingEdge\lib\mono\4.7.1-api\Facades\System.IO.MemoryMappedFiles.dll
-r:P:\Unity\2018.1.6f1\Editor\Data\MonoBleedingEdge\lib\mono\4.7.1-api\Facades\System.IO.Pipes.dll
-r:P:\Unity\2018.1.6f1\Editor\Data\MonoBleedingEdge\lib\mono\4.7.1-api\Facades\System.IO.UnmanagedMemoryStream.dll
-r:P:\Unity\2018.1.6f1\Editor\Data\MonoBleedingEdge\lib\mono\4.7.1-api\Facades\System.Linq.dll
-r:P:\Unity\2018.1.6f1\Editor\Data\MonoBleedingEdge\lib\mono\4.7.1-api\Facades\System.Linq.Expressions.dll
-r:P:\Unity\2018.1.6f1\Editor\Data\MonoBleedingEdge\lib\mono\4.7.1-api\Facades\System.Linq.Parallel.dll
-r:P:\Unity\2018.1.6f1\Editor\Data\MonoBleedingEdge\lib\mono\4.7.1-api\Facades\System.Linq.Queryable.dll
-r:P:\Unity\2018.1.6f1\Editor\Data\MonoBleedingEdge\lib\mono\4.7.1-api\Facades\System.Net.Http.Rtc.dll
-r:P:\Unity\2018.1.6f1\Editor\Data\MonoBleedingEdge\lib\mono\4.7.1-api\Facades\System.Net.NameResolution.dll
-r:P:\Unity\2018.1.6f1\Editor\Data\MonoBleedingEdge\lib\mono\4.7.1-api\Facades\System.Net.NetworkInformation.dll
-r:P:\Unity\2018.1.6f1\Editor\Data\MonoBleedingEdge\lib\mono\4.7.1-api\Facades\System.Net.Ping.dll
-r:P:\Unity\2018.1.6f1\Editor\Data\MonoBleedingEdge\lib\mono\4.7.1-api\Facades\System.Net.Primitives.dll
-r:P:\Unity\2018.1.6f1\Editor\Data\MonoBleedingEdge\lib\mono\4.7.1-api\Facades\System.Net.Requests.dll
-r:P:\Unity\2018.1.6f1\Editor\Data\MonoBleedingEdge\lib\mono\4.7.1-api\Facades\System.Net.Security.dll
-r:P:\Unity\2018.1.6f1\Editor\Data\MonoBleedingEdge\lib\mono\4.7.1-api\Facades\System.Net.Sockets.dll
-r:P:\Unity\2018.1.6f1\Editor\Data\MonoBleedingEdge\lib\mono\4.7.1-api\Facades\System.Net.WebHeaderCollection.dll
-r:P:\Unity\2018.1.6f1\Editor\Data\MonoBleedingEdge\lib\mono\4.7.1-api\Facades\System.Net.WebSockets.Client.dll
-r:P:\Unity\2018.1.6f1\Editor\Data\MonoBleedingEdge\lib\mono\4.7.1-api\Facades\System.Net.WebSockets.dll
-r:P:\Unity\2018.1.6f1\Editor\Data\MonoBleedingEdge\lib\mono\4.7.1-api\Facades\System.ObjectModel.dll
-r:P:\Unity\2018.1.6f1\Editor\Data\MonoBleedingEdge\lib\mono\4.7.1-api\Facades\System.Reflection.dll
-r:P:\Unity\2018.1.6f1\Editor\Data\MonoBleedingEdge\lib\mono\4.7.1-api\Facades\System.Reflection.Emit.dll
-r:P:\Unity\2018.1.6f1\Editor\Data\MonoBleedingEdge\lib\mono\4.7.1-api\Facades\System.Reflection.Emit.ILGeneration.dll
-r:P:\Unity\2018.1.6f1\Editor\Data\MonoBleedingEdge\lib\mono\4.7.1-api\Facades\System.Reflection.Emit.Lightweight.dll
-r:P:\Unity\2018.1.6f1\Editor\Data\MonoBleedingEdge\lib\mono\4.7.1-api\Facades\System.Reflection.Extensions.dll
-r:P:\Unity\2018.1.6f1\Editor\Data\MonoBleedingEdge\lib\mono\4.7.1-api\Facades\System.Reflection.Primitives.dll
-r:P:\Unity\2018.1.6f1\Editor\Data\MonoBleedingEdge\lib\mono\4.7.1-api\Facades\System.Resources.Reader.dll
-r:P:\Unity\2018.1.6f1\Editor\Data\MonoBleedingEdge\lib\mono\4.7.1-api\Facades\System.Resources.ResourceManager.dll
-r:P:\Unity\2018.1.6f1\Editor\Data\MonoBleedingEdge\lib\mono\4.7.1-api\Facades\System.Resources.Writer.dll
-r:P:\Unity\2018.1.6f1\Editor\Data\MonoBleedingEdge\lib\mono\4.7.1-api\Facades\System.Runtime.CompilerServices.VisualC.dll
-r:P:\Unity\2018.1.6f1\Editor\Data\MonoBleedingEdge\lib\mono\4.7.1-api\Facades\System.Runtime.dll
-r:P:\Unity\2018.1.6f1\Editor\Data\MonoBleedingEdge\lib\mono\4.7.1-api\Facades\System.Runtime.Extensions.dll
-r:P:\Unity\2018.1.6f1\Editor\Data\MonoBleedingEdge\lib\mono\4.7.1-api\Facades\System.Runtime.Handles.dll
-r:P:\Unity\2018.1.6f1\Editor\Data\MonoBleedingEdge\lib\mono\4.7.1-api\Facades\System.Runtime.InteropServices.dll
-r:P:\Unity\2018.1.6f1\Editor\Data\MonoBleedingEdge\lib\mono\4.7.1-api\Facades\System.Runtime.InteropServices.RuntimeInformation.dll
-r:P:\Unity\2018.1.6f1\Editor\Data\MonoBleedingEdge\lib\mono\4.7.1-api\Facades\System.Runtime.InteropServices.WindowsRuntime.dll
-r:P:\Unity\2018.1.6f1\Editor\Data\MonoBleedingEdge\lib\mono\4.7.1-api\Facades\System.Runtime.Numerics.dll
-r:P:\Unity\2018.1.6f1\Editor\Data\MonoBleedingEdge\lib\mono\4.7.1-api\Facades\System.Runtime.Serialization.Formatters.dll
-r:P:\Unity\2018.1.6f1\Editor\Data\MonoBleedingEdge\lib\mono\4.7.1-api\Facades\System.Runtime.Serialization.Json.dll
-r:P:\Unity\2018.1.6f1\Editor\Data\MonoBleedingEdge\lib\mono\4.7.1-api\Facades\System.Runtime.Serialization.Primitives.dll
-r:P:\Unity\2018.1.6f1\Editor\Data\MonoBleedingEdge\lib\mono\4.7.1-api\Facades\System.Runtime.Serialization.Xml.dll
-r:P:\Unity\2018.1.6f1\Editor\Data\MonoBleedingEdge\lib\mono\4.7.1-api\Facades\System.Security.Claims.dll
-r:P:\Unity\2018.1.6f1\Editor\Data\MonoBleedingEdge\lib\mono\4.7.1-api\Facades\System.Security.Cryptography.Algorithms.dll
-r:P:\Unity\2018.1.6f1\Editor\Data\MonoBleedingEdge\lib\mono\4.7.1-api\Facades\System.Security.Cryptography.Csp.dll
-r:P:\Unity\2018.1.6f1\Editor\Data\MonoBleedingEdge\lib\mono\4.7.1-api\Facades\System.Security.Cryptography.Encoding.dll
-r:P:\Unity\2018.1.6f1\Editor\Data\MonoBleedingEdge\lib\mono\4.7.1-api\Facades\System.Security.Cryptography.Primitives.dll
-r:P:\Unity\2018.1.6f1\Editor\Data\MonoBleedingEdge\lib\mono\4.7.1-api\Facades\System.Security.Cryptography.X509Certificates.dll
-r:P:\Unity\2018.1.6f1\Editor\Data\MonoBleedingEdge\lib\mono\4.7.1-api\Facades\System.Security.Principal.dll
-r:P:\Unity\2018.1.6f1\Editor\Data\MonoBleedingEdge\lib\mono\4.7.1-api\Facades\System.Security.SecureString.dll
-r:P:\Unity\2018.1.6f1\Editor\Data\MonoBleedingEdge\lib\mono\4.7.1-api\Facades\System.ServiceModel.Duplex.dll
-r:P:\Unity\2018.1.6f1\Editor\Data\MonoBleedingEdge\lib\mono\4.7.1-api\Facades\System.ServiceModel.Http.dll
-r:P:\Unity\2018.1.6f1\Editor\Data\MonoBleedingEdge\lib\mono\4.7.1-api\Facades\System.ServiceModel.NetTcp.dll
-r:P:\Unity\2018.1.6f1\Editor\Data\MonoBleedingEdge\lib\mono\4.7.1-api\Facades\System.ServiceModel.Primitives.dll
-r:P:\Unity\2018.1.6f1\Editor\Data\MonoBleedingEdge\lib\mono\4.7.1-api\Facades\System.ServiceModel.Security.dll
-r:P:\Unity\2018.1.6f1\Editor\Data\MonoBleedingEdge\lib\mono\4.7.1-api\Facades\System.Text.Encoding.dll
-r:P:\Unity\2018.1.6f1\Editor\Data\MonoBleedingEdge\lib\mono\4.7.1-api\Facades\System.Text.Encoding.Extensions.dll
-r:P:\Unity\2018.1.6f1\Editor\Data\MonoBleedingEdge\lib\mono\4.7.1-api\Facades\System.Text.RegularExpressions.dll
-r:P:\Unity\2018.1.6f1\Editor\Data\MonoBleedingEdge\lib\mono\4.7.1-api\Facades\System.Threading.dll
-r:P:\Unity\2018.1.6f1\Editor\Data\MonoBleedingEdge\lib\mono\4.7.1-api\Facades\System.Threading.Overlapped.dll
-r:P:\Unity\2018.1.6f1\Editor\Data\MonoBleedingEdge\lib\mono\4.7.1-api\Facades\System.Threading.Tasks.dll
-r:P:\Unity\2018.1.6f1\Editor\Data\MonoBleedingEdge\lib\mono\4.7.1-api\Facades\System.Threading.Tasks.Parallel.dll
-r:P:\Unity\2018.1.6f1\Editor\Data\MonoBleedingEdge\lib\mono\4.7.1-api\Facades\System.Threading.Thread.dll
-r:P:\Unity\2018.1.6f1\Editor\Data\MonoBleedingEdge\lib\mono\4.7.1-api\Facades\System.Threading.ThreadPool.dll
-r:P:\Unity\2018.1.6f1\Editor\Data\MonoBleedingEdge\lib\mono\4.7.1-api\Facades\System.Threading.Timer.dll
-r:P:\Unity\2018.1.6f1\Editor\Data\MonoBleedingEdge\lib\mono\4.7.1-api\Facades\System.ValueTuple.dll
-r:P:\Unity\2018.1.6f1\Editor\Data\MonoBleedingEdge\lib\mono\4.7.1-api\Facades\System.Xml.ReaderWriter.dll
-r:P:\Unity\2018.1.6f1\Editor\Data\MonoBleedingEdge\lib\mono\4.7.1-api\Facades\System.Xml.XDocument.dll
-r:P:\Unity\2018.1.6f1\Editor\Data\MonoBleedingEdge\lib\mono\4.7.1-api\Facades\System.Xml.XmlDocument.dll
-r:P:\Unity\2018.1.6f1\Editor\Data\MonoBleedingEdge\lib\mono\4.7.1-api\Facades\System.Xml.XmlSerializer.dll
-r:P:\Unity\2018.1.6f1\Editor\Data\MonoBleedingEdge\lib\mono\4.7.1-api\Facades\System.Xml.XPath.dll
-r:P:\Unity\2018.1.6f1\Editor\Data\MonoBleedingEdge\lib\mono\4.7.1-api\Facades\System.Xml.XPath.XDocument.dll
-r:P:\Unity\2018.1.6f1\Editor\Data\MonoBleedingEdge\lib\mono\unityscript\UnityScript.dll
-r:P:\Unity\2018.1.6f1\Editor\Data\MonoBleedingEdge\lib\mono\unityscript\UnityScript.Lang.dll
-r:P:\Unity\2018.1.6f1\Editor\Data\MonoBleedingEdge\lib\mono\unityscript\Boo.Lang.dll
-d:UNITY_5_3_OR_NEWER
-d:UNITY_5_4_OR_NEWER
-d:UNITY_5_5_OR_NEWER
-d:UNITY_5_6_OR_NEWER
-d:UNITY_2017_1_OR_NEWER
-d:UNITY_2017_2_OR_NEWER
-d:UNITY_2017_3_OR_NEWER
-d:UNITY_2018_1_OR_NEWER
-d:UNITY_2018_1_6
-d:UNITY_2018_1
-d:UNITY_2018
-d:PLATFORM_ARCH_64
-d:UNITY_64
-d:UNITY_ANALYTICS
-d:ENABLE_AUDIO
-d:ENABLE_CACHING
-d:ENABLE_CLOTH
-d:ENABLE_DUCK_TYPING
-d:ENABLE_MICROPHONE
-d:ENABLE_MULTIPLE_DISPLAYS
-d:ENABLE_PHYSICS
-d:ENABLE_SPRITERENDERER_FLIPPING
-d:ENABLE_SPRITES
-d:ENABLE_GRID
-d:ENABLE_TILEMAP
-d:ENABLE_TERRAIN
-d:ENABLE_RAKNET
-d:ENABLE_DIRECTOR
-d:ENABLE_UNET
-d:ENABLE_LZMA
-d:ENABLE_UNITYEVENTS
-d:ENABLE_WEBCAM
-d:ENABLE_WWW
-d:ENABLE_CLOUD_SERVICES_COLLAB
-d:ENABLE_CLOUD_SERVICES_COLLAB_SOFTLOCKS
-d:ENABLE_CLOUD_SERVICES_ADS
-d:ENABLE_CLOUD_HUB
-d:ENABLE_CLOUD_PROJECT_ID
-d:ENABLE_CLOUD_SERVICES_USE_WEBREQUEST
-d:ENABLE_CLOUD_SERVICES_UNET
-d:ENABLE_CLOUD_SERVICES_BUILD
-d:ENABLE_CLOUD_LICENSE
-d:ENABLE_EDITOR_HUB
-d:ENABLE_EDITOR_HUB_LICENSE
-d:ENABLE_WEBSOCKET_CLIENT
-d:ENABLE_DIRECTOR_AUDIO
-d:ENABLE_DIRECTOR_TEXTURE
-d:ENABLE_TIMELINE
-d:ENABLE_EDITOR_METRICS
-d:ENABLE_EDITOR_METRICS_CACHING
-d:ENABLE_MANAGED_JOBS
-d:ENABLE_MANAGED_TRANSFORM_JOBS
-d:INCLUDE_DYNAMIC_GI
-d:INCLUDE_GI
-d:ENABLE_MONO_BDWGC
-d:PLATFORM_SUPPORTS_MONO
-d:RENDER_SOFTWARE_CURSOR
-d:INCLUDE_PUBNUB
-d:ENABLE_PLAYMODE_TESTS_RUNNER
-d:ENABLE_VIDEO
-d:ENABLE_PACKMAN
-d:ENABLE_CUSTOM_RENDER_TEXTURE
-d:ENABLE_LOCALIZATION
-d:PLATFORM_STANDALONE_WIN
-d:PLATFORM_STANDALONE
-d:UNITY_STANDALONE_WIN
-d:UNITY_STANDALONE
-d:ENABLE_SUBSTANCE
-d:ENABLE_RUNTIME_GI
-d:ENABLE_MOVIES
-d:ENABLE_NETWORK
-d:ENABLE_CRUNCH_TEXTURE_COMPRESSION
-d:ENABLE_UNITYWEBREQUEST
-d:ENABLE_CLOUD_SERVICES
-d:ENABLE_CLOUD_SERVICES_ANALYTICS
-d:ENABLE_CLOUD_SERVICES_PURCHASING
-d:ENABLE_CLOUD_SERVICES_CRASH_REPORTING
-d:ENABLE_OUT_OF_PROCESS_CRASH_HANDLER
-d:ENABLE_EVENT_QUEUE
-d:ENABLE_CLUSTERINPUT
-d:ENABLE_VR
-d:ENABLE_AR
-d:ENABLE_WEBSOCKET_HOST
-d:ENABLE_MONO
-d:NET_4_6
-d:ENABLE_PROFILER
-d:DEBUG
-d:TRACE
-d:UNITY_ASSERTIONS
-d:UNITY_EDITOR
-d:UNITY_EDITOR_64
-d:UNITY_EDITOR_WIN
-d:ENABLE_UNITY_COLLECTIONS_CHECKS
-d:UNITY_TEAM_LICENSE
-d:ENABLE_VSTU
-d:UNITY_POST_PROCESSING_STACK_V2
-i:C:/Users/Yoshi/AppData/Local/Unity/cache/packages/packages.unity.com/com.unity.properties@0.1.14-preview.2/Runtime/DefaultVersionStorage.cs
-i:C:/Users/Yoshi/AppData/Local/Unity/cache/packages/packages.unity.com/com.unity.properties@0.1.14-preview.2/Runtime/EnumProperty.cs
-i:C:/Users/Yoshi/AppData/Local/Unity/cache/packages/packages.unity.com/com.unity.properties@0.1.14-preview.2/Runtime/IListProperty.cs
-i:C:/Users/Yoshi/AppData/Local/Unity/cache/packages/packages.unity.com/com.unity.properties@0.1.14-preview.2/Runtime/IProperty.cs
-i:C:/Users/Yoshi/AppData/Local/Unity/cache/packages/packages.unity.com/com.unity.properties@0.1.14-preview.2/Runtime/IPropertyBag.cs
-i:C:/Users/Yoshi/AppData/Local/Unity/cache/packages/packages.unity.com/com.unity.properties@0.1.14-preview.2/Runtime/IPropertyContainer.cs
-i:C:/Users/Yoshi/AppData/Local/Unity/cache/packages/packages.unity.com/com.unity.properties@0.1.14-preview.2/Runtime/IPropertyVisitor.cs
-i:C:/Users/Yoshi/AppData/Local/Unity/cache/packages/packages.unity.com/com.unity.properties@0.1.14-preview.2/Runtime/IVersionStorage.cs
-i:C:/Users/Yoshi/AppData/Local/Unity/cache/packages/packages.unity.com/com.unity.properties@0.1.14-preview.2/Runtime/ListProperty.cs
-i:C:/Users/Yoshi/AppData/Local/Unity/cache/packages/packages.unity.com/com.unity.properties@0.1.14-preview.2/Runtime/Property.cs
-i:C:/Users/Yoshi/AppData/Local/Unity/cache/packages/packages.unity.com/com.unity.properties@0.1.14-preview.2/Runtime/PropertyBag.cs
-i:C:/Users/Yoshi/AppData/Local/Unity/cache/packages/packages.unity.com/com.unity.properties@0.1.14-preview.2/Runtime/PropertyPath.cs
-i:C:/Users/Yoshi/AppData/Local/Unity/cache/packages/packages.unity.com/com.unity.properties@0.1.14-preview.2/Runtime/PropertyVisitor.cs
-i:C:/Users/Yoshi/AppData/Local/Unity/cache/packages/packages.unity.com/com.unity.properties@0.1.14-preview.2/Runtime/Serialization/Json/JsonPropertyContainerWriter.cs
-i:C:/Users/Yoshi/AppData/Local/Unity/cache/packages/packages.unity.com/com.unity.properties@0.1.14-preview.2/Runtime/Serialization/Json/JsonPropertyVisitor.cs
-i:C:/Users/Yoshi/AppData/Local/Unity/cache/packages/packages.unity.com/com.unity.properties@0.1.14-preview.2/Runtime/Serialization/Json/JsonSerializer.cs
-i:C:/Users/Yoshi/AppData/Local/Unity/cache/packages/packages.unity.com/com.unity.properties@0.1.14-preview.2/Runtime/Serialization/Json/JsonUtility.cs
-i:C:/Users/Yoshi/AppData/Local/Unity/cache/packages/packages.unity.com/com.unity.properties@0.1.14-preview.2/Runtime/Serialization/Json/SimpleJson.cs
-i:C:/Users/Yoshi/AppData/Local/Unity/cache/packages/packages.unity.com/com.unity.properties@0.1.14-preview.2/Runtime/Serialization/Json/StringBuffer.cs
-i:C:/Users/Yoshi/AppData/Local/Unity/cache/packages/packages.unity.com/com.unity.properties@0.1.14-preview.2/Runtime/TypeConversion.cs
-v:0
