%YAML 1.1
%TAG !u! tag:unity3d.com,2011:
--- !u!74 &7400000
AnimationClip:
  m_ObjectHideFlags: 0
  m_CorrespondingSourceObject: {fileID: 0}
  m_PrefabInternal: {fileID: 0}
  m_Name: SlowObjectAnim
  serializedVersion: 6
  m_Legacy: 0
  m_Compressed: 0
  m_UseHighQualityCurve: 1
  m_RotationCurves: []
  m_CompressedRotationCurves: []
  m_EulerCurves: []
  m_PositionCurves: []
  m_ScaleCurves: []
  m_FloatCurves: []
  m_PPtrCurves:
  - curve:
    - time: 0
      value: {fileID: 21300000, guid: dbb2da97cd88bf74299345792d4848c5, type: 3}
    - time: 0.033333335
      value: {fileID: 21300000, guid: b508e234c950d0840b4d35b401249fb2, type: 3}
    - time: 0.06666667
      value: {fileID: 21300000, guid: 2cdcc91935265774390e3f5b92e5ab40, type: 3}
    - time: 0.1
      value: {fileID: 21300000, guid: dca099ad2a1fd7a44842409df73fff81, type: 3}
    - time: 0.13333334
      value: {fileID: 21300000, guid: 7955380c968dea34792d64f47026996b, type: 3}
    - time: 0.16666667
      value: {fileID: 21300000, guid: 22a555cf68ac7514a95c2ddfd906a033, type: 3}
    - time: 0.2
      value: {fileID: 21300000, guid: 67c6dd2c6320ba241896b918479d23fa, type: 3}
    - time: 0.23333333
      value: {fileID: 21300000, guid: 00c05fe238c48f74889965901768604a, type: 3}
    - time: 0.28333333
      value: {fileID: 21300000, guid: acdc370c83465bb43b076b1a76a0e34b, type: 3}
    - time: 0.31666666
      value: {fileID: 21300000, guid: ad84315b35fdea242abb3b2d4e1dc618, type: 3}
    - time: 0.35
      value: {fileID: 21300000, guid: 50119b0f88fb90b478a96a3bbb10e791, type: 3}
    - time: 0.38333333
      value: {fileID: 21300000, guid: 92ba5fdc9d3526942a91fb7d4304edc6, type: 3}
    - time: 0.41666666
      value: {fileID: 21300000, guid: f7633017669e7e34dab14e635c2da96e, type: 3}
    - time: 0.45
      value: {fileID: 21300000, guid: 939f05202d9735641933b7fad38bc6b3, type: 3}
    - time: 0.48333332
      value: {fileID: 21300000, guid: 64f3d033b2de37441be6ef13e4c19521, type: 3}
    - time: 0.51666665
      value: {fileID: 21300000, guid: 99143defbeb1f534a8fac6248bf34f56, type: 3}
    - time: 0.55
      value: {fileID: 21300000, guid: 268cb78ed4d30364c9acc415aa74a7d8, type: 3}
    - time: 0.5833333
      value: {fileID: 21300000, guid: 4469c09a3b8df604f89c19aff137096b, type: 3}
    - time: 0.6166667
      value: {fileID: 21300000, guid: a3397f7abd0539e4b8be76cb26426628, type: 3}
    - time: 0.65
      value: {fileID: 21300000, guid: 0a18b316efec6904791e159c8ec150c3, type: 3}
    - time: 0.68333334
      value: {fileID: 21300000, guid: 3354ebabbd2fccb4db14e9bbd7895020, type: 3}
    - time: 0.71666664
      value: {fileID: 21300000, guid: a60791fe50ba23c4dbbf586da163efee, type: 3}
    - time: 0.76666665
      value: {fileID: 21300000, guid: e3c5034768f7c0a4cb42e35f9d60eb2e, type: 3}
    - time: 0.8
      value: {fileID: 21300000, guid: dd5224d0e9ef30848b406f8c1031a85d, type: 3}
    - time: 0.8333333
      value: {fileID: 21300000, guid: 03b776ebc6a56b04095b2a638988bbac, type: 3}
    - time: 0.8666667
      value: {fileID: 21300000, guid: 04cea12f340c73947a50d231be4f0686, type: 3}
    - time: 0.9
      value: {fileID: 21300000, guid: 4ed0af05e7c65a64e84bdbe6109a3b0e, type: 3}
    - time: 0.93333334
      value: {fileID: 21300000, guid: bea2292fa439d994cb638797d2eccad1, type: 3}
    - time: 0.96666664
      value: {fileID: 21300000, guid: fdd842ef71303964bb998854340f14b9, type: 3}
    - time: 1
      value: {fileID: 21300000, guid: 8c4f9332f5f267e438716b04f415ef26, type: 3}
    - time: 1.0333333
      value: {fileID: 21300000, guid: 9cc1c74aa49515a4cadedb553993dcb3, type: 3}
    - time: 1.0666667
      value: {fileID: 21300000, guid: 5728654bf83010c448642642a7d9373e, type: 3}
    - time: 1.1
      value: {fileID: 21300000, guid: 0e3f2e9c3e847de49a85858e61857331, type: 3}
    - time: 1.1333333
      value: {fileID: 21300000, guid: baadd2d7e85394341b9f1594e57fc884, type: 3}
    - time: 1.1666666
      value: {fileID: 21300000, guid: b0a2b6b504ab8e84b86cb451bcf7c1a5, type: 3}
    - time: 1.2
      value: {fileID: 21300000, guid: 2ef1df928dc559443a5e290d779e7540, type: 3}
    - time: 1.2333333
      value: {fileID: 21300000, guid: 774f4c3d76b81c3449eae7fea46b6ad9, type: 3}
    - time: 1.2833333
      value: {fileID: 21300000, guid: d8920fe0514de97429abb10350c38d50, type: 3}
    - time: 1.3166667
      value: {fileID: 21300000, guid: c958e633bb7328d4da32437c21bf482e, type: 3}
    - time: 1.35
      value: {fileID: 21300000, guid: 1094a011506d1ef4c8d4ba74015d75a5, type: 3}
    - time: 1.3833333
      value: {fileID: 21300000, guid: 49aea25fb38ea0f498edd2ad1e43f7b3, type: 3}
    - time: 1.4166666
      value: {fileID: 21300000, guid: a08e77b362c6ff548a5fba021976bac4, type: 3}
    - time: 1.45
      value: {fileID: 21300000, guid: 48633ec9f36764f4f8a83aca5c1d6ba8, type: 3}
    - time: 1.4833333
      value: {fileID: 21300000, guid: 9c9ead1c61cf41846bccb3c119a221eb, type: 3}
    - time: 1.5166667
      value: {fileID: 21300000, guid: cadfd7ad9e2be7e458051cbf4a1d943b, type: 3}
    - time: 1.55
      value: {fileID: 21300000, guid: b3896fc6f2ca56f4dbe3d1ca1951187a, type: 3}
    - time: 1.5833334
      value: {fileID: 21300000, guid: 2eef5430ef28a02488e5f03680577bae, type: 3}
    - time: 1.6166667
      value: {fileID: 21300000, guid: 778a419977ce25f4b9dbaba48039fd2f, type: 3}
    - time: 1.65
      value: {fileID: 21300000, guid: 35316968d0b56af4abbd3d5629abe2b2, type: 3}
    - time: 1.6833333
      value: {fileID: 21300000, guid: 34f5c995c187ae94d8969278e7fb4bfe, type: 3}
    - time: 1.7166667
      value: {fileID: 21300000, guid: 250fe7849b0aecd438bc71a9f80e70f6, type: 3}
    - time: 1.7666667
      value: {fileID: 21300000, guid: 3b586774666caf94cbed06fab609c8f6, type: 3}
    - time: 1.8
      value: {fileID: 21300000, guid: 86a6fc30ec2be314eb23bf3700556e5e, type: 3}
    - time: 1.8333334
      value: {fileID: 21300000, guid: 757ac911efa039042a4ea5d0c076daf4, type: 3}
    - time: 1.8666667
      value: {fileID: 21300000, guid: 1a8e293f0c670ee4a8958ff95328c97a, type: 3}
    - time: 1.9
      value: {fileID: 21300000, guid: 8812aba5d4e48a645b5932f7ac9684d9, type: 3}
    - time: 1.9333333
      value: {fileID: 21300000, guid: 09249f5f017f82c439f74d7e3d588e15, type: 3}
    - time: 1.9666667
      value: {fileID: 21300000, guid: f84e383abcade124a9eb3599b1eb9010, type: 3}
    - time: 2
      value: {fileID: 21300000, guid: 82a68b9c6adfb4f44883b7154a8fd86b, type: 3}
    - time: 2.0333333
      value: {fileID: 21300000, guid: a15c7a5e3d186644a9adb506f6b47b5a, type: 3}
    - time: 2.0666666
      value: {fileID: 21300000, guid: f9a841462dbed2244aa837e1d51d2f04, type: 3}
    - time: 2.1
      value: {fileID: 21300000, guid: 98956a3663cd83f4e95221cd08607b6c, type: 3}
    - time: 2.1333334
      value: {fileID: 21300000, guid: c5ecab6b2763d1140be004b53407807f, type: 3}
    - time: 2.1666667
      value: {fileID: 21300000, guid: 7f087ac1f89145d479625bf44ab4b653, type: 3}
    - time: 2.2
      value: {fileID: 21300000, guid: 79a6b6e67bff48d43a23a6dc1d35fc56, type: 3}
    - time: 2.2333333
      value: {fileID: 21300000, guid: 8ffa9fff5c23b8d42adf5dd6fb2d2306, type: 3}
    - time: 2.2833333
      value: {fileID: 21300000, guid: 81c7a97355039c345ad1275906664b6a, type: 3}
    - time: 2.3166666
      value: {fileID: 21300000, guid: a6979a0853d56d14c916c7ffbb8c179b, type: 3}
    - time: 2.35
      value: {fileID: 21300000, guid: 4f93778bbd46f6e42bb7deb68e2e3ba4, type: 3}
    - time: 2.3833334
      value: {fileID: 21300000, guid: 788d958ede0ed134b9536f886e741d12, type: 3}
    - time: 2.4166667
      value: {fileID: 21300000, guid: 809faca933dd20940a5bd4d80a6f9c72, type: 3}
    - time: 2.45
      value: {fileID: 21300000, guid: 026e2cd8df4d67c49bdd32ccf69af917, type: 3}
    - time: 2.4833333
      value: {fileID: 21300000, guid: 3f0948274886422489985774d968aaf8, type: 3}
    - time: 2.5166667
      value: {fileID: 21300000, guid: 64f6237316ffa3d429df50829e122ca9, type: 3}
    - time: 2.55
      value: {fileID: 21300000, guid: 2984cacd803bcfd4fbffb55854a7045f, type: 3}
    - time: 2.5833333
      value: {fileID: 21300000, guid: 56e0dcf94bde034489a4ca6e7ec12da6, type: 3}
    - time: 2.6166666
      value: {fileID: 21300000, guid: 46278e7675bba2b49be5212f02b7616c, type: 3}
    - time: 2.65
      value: {fileID: 21300000, guid: 13367b6f3c364d34e9fd26bb7fb4c540, type: 3}
    - time: 2.6833334
      value: {fileID: 21300000, guid: 359aaf3b456c4424487740a9b1683d4b, type: 3}
    - time: 2.7166667
      value: {fileID: 21300000, guid: 0cadffd252f10e841be41e14b13c06b3, type: 3}
    - time: 2.7666667
      value: {fileID: 21300000, guid: d040edf4683334040b4c124aeae4dd16, type: 3}
    - time: 2.8
      value: {fileID: 21300000, guid: 79ae774721b73284687c1475517bb1b8, type: 3}
    - time: 2.8333333
      value: {fileID: 21300000, guid: 575a529b60688fd4aa685473dbb527fa, type: 3}
    - time: 2.8666666
      value: {fileID: 21300000, guid: 276f8d7b00bc0b7419436b7cdebfa40e, type: 3}
    - time: 2.9
      value: {fileID: 21300000, guid: 43bc0ca014f82e44c8026880f48959c3, type: 3}
    - time: 2.9333334
      value: {fileID: 21300000, guid: 300655cfac20d1841b0291c9c9b8ff67, type: 3}
    - time: 2.9666667
      value: {fileID: 21300000, guid: cf1b26dfa7ccdae4aac59a0635dab9b0, type: 3}
    - time: 3
      value: {fileID: 21300000, guid: e1fedd3f64ff1654d918d0ae2c8da0a7, type: 3}
    - time: 3.0333333
      value: {fileID: 21300000, guid: 508c1f35b19221d48989d3336289f380, type: 3}
    - time: 3.0666666
      value: {fileID: 21300000, guid: c183235ee1932b24f9daa70deca981ba, type: 3}
    - time: 3.1
      value: {fileID: 21300000, guid: b2db2c90f733b88489f20526f9d69028, type: 3}
    - time: 3.1333334
      value: {fileID: 21300000, guid: 08d6936583d4e5e419b65b81853fee2e, type: 3}
    - time: 3.1666667
      value: {fileID: 21300000, guid: c8af0626cbc4de94cb06c45c48f504d8, type: 3}
    - time: 3.2
      value: {fileID: 21300000, guid: eb541e24bec8b7d48820178fd942f16e, type: 3}
    - time: 3.2333333
      value: {fileID: 21300000, guid: 08c53006d2c8b9d46afa4ee158accd5b, type: 3}
    - time: 3.2833333
      value: {fileID: 21300000, guid: 113fe474d49970743bbbb36415f2a343, type: 3}
    - time: 3.3166666
      value: {fileID: 21300000, guid: a2f7cfbd2e6208f408aa0d62e279d476, type: 3}
    - time: 3.35
      value: {fileID: 21300000, guid: 9840094814ce3e5409a05bd57a0fc222, type: 3}
    - time: 3.3833334
      value: {fileID: 21300000, guid: bfc6fe9e76b535446bd40306c0462b2d, type: 3}
    - time: 3.4166667
      value: {fileID: 21300000, guid: 73cf59fda436074448ea0b499ac828fd, type: 3}
    - time: 3.45
      value: {fileID: 21300000, guid: ffbd9001fbbeef344864e2ab794e7057, type: 3}
    - time: 3.4833333
      value: {fileID: 21300000, guid: 05db46d07902a3a4083553a116902f55, type: 3}
    - time: 3.5166667
      value: {fileID: 21300000, guid: 250b4aaa744a6774c9040e683228244c, type: 3}
    - time: 3.55
      value: {fileID: 21300000, guid: 6500d65d42b0d994da49e025b5f04a06, type: 3}
    - time: 3.5833333
      value: {fileID: 21300000, guid: ada0d7688734f374b963396554d969f4, type: 3}
    - time: 3.6166666
      value: {fileID: 21300000, guid: 7da46b9fb22bdbd4aa27828c24c3e648, type: 3}
    - time: 3.65
      value: {fileID: 21300000, guid: 2597863737b54d24384088f33a0767da, type: 3}
    - time: 3.6833334
      value: {fileID: 21300000, guid: 39148ee2d95b4ad4581a201eed227c85, type: 3}
    - time: 3.7166667
      value: {fileID: 21300000, guid: 6c957f617fc51574f95005074875f998, type: 3}
    - time: 3.7666667
      value: {fileID: 21300000, guid: 49cb79374e1a7da42a7846d8b4d1a3df, type: 3}
    - time: 3.8
      value: {fileID: 21300000, guid: b11a3cc2c34b086498b7a26371297b39, type: 3}
    - time: 3.8333333
      value: {fileID: 21300000, guid: 7f964a4e4fbdc3441ba02723422ce114, type: 3}
    - time: 3.8666666
      value: {fileID: 21300000, guid: 715fe29c672a99d40aa3119a4501c5ad, type: 3}
    - time: 3.9
      value: {fileID: 21300000, guid: 1fe31c44fa3ddc349985e54fde33bc7a, type: 3}
    - time: 3.9333334
      value: {fileID: 21300000, guid: 7cff543c744872d4d80f00f85db87b29, type: 3}
    - time: 3.9666667
      value: {fileID: 21300000, guid: e892e4de80a14e9479c994bf8aa52b6c, type: 3}
    - time: 4
      value: {fileID: 21300000, guid: d02a9bb0da16bb248927532897ef7b82, type: 3}
    attribute: m_Sprite
    path: 
    classID: 212
    script: {fileID: 0}
  m_SampleRate: 60
  m_WrapMode: 0
  m_Bounds:
    m_Center: {x: 0, y: 0, z: 0}
    m_Extent: {x: 0, y: 0, z: 0}
  m_ClipBindingConstant:
    genericBindings:
    - serializedVersion: 2
      path: 0
      attribute: 0
      script: {fileID: 0}
      typeID: 212
      customType: 23
      isPPtrCurve: 1
    pptrCurveMapping:
    - {fileID: 21300000, guid: dbb2da97cd88bf74299345792d4848c5, type: 3}
    - {fileID: 21300000, guid: b508e234c950d0840b4d35b401249fb2, type: 3}
    - {fileID: 21300000, guid: 2cdcc91935265774390e3f5b92e5ab40, type: 3}
    - {fileID: 21300000, guid: dca099ad2a1fd7a44842409df73fff81, type: 3}
    - {fileID: 21300000, guid: 7955380c968dea34792d64f47026996b, type: 3}
    - {fileID: 21300000, guid: 22a555cf68ac7514a95c2ddfd906a033, type: 3}
    - {fileID: 21300000, guid: 67c6dd2c6320ba241896b918479d23fa, type: 3}
    - {fileID: 21300000, guid: 00c05fe238c48f74889965901768604a, type: 3}
    - {fileID: 21300000, guid: acdc370c83465bb43b076b1a76a0e34b, type: 3}
    - {fileID: 21300000, guid: ad84315b35fdea242abb3b2d4e1dc618, type: 3}
    - {fileID: 21300000, guid: 50119b0f88fb90b478a96a3bbb10e791, type: 3}
    - {fileID: 21300000, guid: 92ba5fdc9d3526942a91fb7d4304edc6, type: 3}
    - {fileID: 21300000, guid: f7633017669e7e34dab14e635c2da96e, type: 3}
    - {fileID: 21300000, guid: 939f05202d9735641933b7fad38bc6b3, type: 3}
    - {fileID: 21300000, guid: 64f3d033b2de37441be6ef13e4c19521, type: 3}
    - {fileID: 21300000, guid: 99143defbeb1f534a8fac6248bf34f56, type: 3}
    - {fileID: 21300000, guid: 268cb78ed4d30364c9acc415aa74a7d8, type: 3}
    - {fileID: 21300000, guid: 4469c09a3b8df604f89c19aff137096b, type: 3}
    - {fileID: 21300000, guid: a3397f7abd0539e4b8be76cb26426628, type: 3}
    - {fileID: 21300000, guid: 0a18b316efec6904791e159c8ec150c3, type: 3}
    - {fileID: 21300000, guid: 3354ebabbd2fccb4db14e9bbd7895020, type: 3}
    - {fileID: 21300000, guid: a60791fe50ba23c4dbbf586da163efee, type: 3}
    - {fileID: 21300000, guid: e3c5034768f7c0a4cb42e35f9d60eb2e, type: 3}
    - {fileID: 21300000, guid: dd5224d0e9ef30848b406f8c1031a85d, type: 3}
    - {fileID: 21300000, guid: 03b776ebc6a56b04095b2a638988bbac, type: 3}
    - {fileID: 21300000, guid: 04cea12f340c73947a50d231be4f0686, type: 3}
    - {fileID: 21300000, guid: 4ed0af05e7c65a64e84bdbe6109a3b0e, type: 3}
    - {fileID: 21300000, guid: bea2292fa439d994cb638797d2eccad1, type: 3}
    - {fileID: 21300000, guid: fdd842ef71303964bb998854340f14b9, type: 3}
    - {fileID: 21300000, guid: 8c4f9332f5f267e438716b04f415ef26, type: 3}
    - {fileID: 21300000, guid: 9cc1c74aa49515a4cadedb553993dcb3, type: 3}
    - {fileID: 21300000, guid: 5728654bf83010c448642642a7d9373e, type: 3}
    - {fileID: 21300000, guid: 0e3f2e9c3e847de49a85858e61857331, type: 3}
    - {fileID: 21300000, guid: baadd2d7e85394341b9f1594e57fc884, type: 3}
    - {fileID: 21300000, guid: b0a2b6b504ab8e84b86cb451bcf7c1a5, type: 3}
    - {fileID: 21300000, guid: 2ef1df928dc559443a5e290d779e7540, type: 3}
    - {fileID: 21300000, guid: 774f4c3d76b81c3449eae7fea46b6ad9, type: 3}
    - {fileID: 21300000, guid: d8920fe0514de97429abb10350c38d50, type: 3}
    - {fileID: 21300000, guid: c958e633bb7328d4da32437c21bf482e, type: 3}
    - {fileID: 21300000, guid: 1094a011506d1ef4c8d4ba74015d75a5, type: 3}
    - {fileID: 21300000, guid: 49aea25fb38ea0f498edd2ad1e43f7b3, type: 3}
    - {fileID: 21300000, guid: a08e77b362c6ff548a5fba021976bac4, type: 3}
    - {fileID: 21300000, guid: 48633ec9f36764f4f8a83aca5c1d6ba8, type: 3}
    - {fileID: 21300000, guid: 9c9ead1c61cf41846bccb3c119a221eb, type: 3}
    - {fileID: 21300000, guid: cadfd7ad9e2be7e458051cbf4a1d943b, type: 3}
    - {fileID: 21300000, guid: b3896fc6f2ca56f4dbe3d1ca1951187a, type: 3}
    - {fileID: 21300000, guid: 2eef5430ef28a02488e5f03680577bae, type: 3}
    - {fileID: 21300000, guid: 778a419977ce25f4b9dbaba48039fd2f, type: 3}
    - {fileID: 21300000, guid: 35316968d0b56af4abbd3d5629abe2b2, type: 3}
    - {fileID: 21300000, guid: 34f5c995c187ae94d8969278e7fb4bfe, type: 3}
    - {fileID: 21300000, guid: 250fe7849b0aecd438bc71a9f80e70f6, type: 3}
    - {fileID: 21300000, guid: 3b586774666caf94cbed06fab609c8f6, type: 3}
    - {fileID: 21300000, guid: 86a6fc30ec2be314eb23bf3700556e5e, type: 3}
    - {fileID: 21300000, guid: 757ac911efa039042a4ea5d0c076daf4, type: 3}
    - {fileID: 21300000, guid: 1a8e293f0c670ee4a8958ff95328c97a, type: 3}
    - {fileID: 21300000, guid: 8812aba5d4e48a645b5932f7ac9684d9, type: 3}
    - {fileID: 21300000, guid: 09249f5f017f82c439f74d7e3d588e15, type: 3}
    - {fileID: 21300000, guid: f84e383abcade124a9eb3599b1eb9010, type: 3}
    - {fileID: 21300000, guid: 82a68b9c6adfb4f44883b7154a8fd86b, type: 3}
    - {fileID: 21300000, guid: a15c7a5e3d186644a9adb506f6b47b5a, type: 3}
    - {fileID: 21300000, guid: f9a841462dbed2244aa837e1d51d2f04, type: 3}
    - {fileID: 21300000, guid: 98956a3663cd83f4e95221cd08607b6c, type: 3}
    - {fileID: 21300000, guid: c5ecab6b2763d1140be004b53407807f, type: 3}
    - {fileID: 21300000, guid: 7f087ac1f89145d479625bf44ab4b653, type: 3}
    - {fileID: 21300000, guid: 79a6b6e67bff48d43a23a6dc1d35fc56, type: 3}
    - {fileID: 21300000, guid: 8ffa9fff5c23b8d42adf5dd6fb2d2306, type: 3}
    - {fileID: 21300000, guid: 81c7a97355039c345ad1275906664b6a, type: 3}
    - {fileID: 21300000, guid: a6979a0853d56d14c916c7ffbb8c179b, type: 3}
    - {fileID: 21300000, guid: 4f93778bbd46f6e42bb7deb68e2e3ba4, type: 3}
    - {fileID: 21300000, guid: 788d958ede0ed134b9536f886e741d12, type: 3}
    - {fileID: 21300000, guid: 809faca933dd20940a5bd4d80a6f9c72, type: 3}
    - {fileID: 21300000, guid: 026e2cd8df4d67c49bdd32ccf69af917, type: 3}
    - {fileID: 21300000, guid: 3f0948274886422489985774d968aaf8, type: 3}
    - {fileID: 21300000, guid: 64f6237316ffa3d429df50829e122ca9, type: 3}
    - {fileID: 21300000, guid: 2984cacd803bcfd4fbffb55854a7045f, type: 3}
    - {fileID: 21300000, guid: 56e0dcf94bde034489a4ca6e7ec12da6, type: 3}
    - {fileID: 21300000, guid: 46278e7675bba2b49be5212f02b7616c, type: 3}
    - {fileID: 21300000, guid: 13367b6f3c364d34e9fd26bb7fb4c540, type: 3}
    - {fileID: 21300000, guid: 359aaf3b456c4424487740a9b1683d4b, type: 3}
    - {fileID: 21300000, guid: 0cadffd252f10e841be41e14b13c06b3, type: 3}
    - {fileID: 21300000, guid: d040edf4683334040b4c124aeae4dd16, type: 3}
    - {fileID: 21300000, guid: 79ae774721b73284687c1475517bb1b8, type: 3}
    - {fileID: 21300000, guid: 575a529b60688fd4aa685473dbb527fa, type: 3}
    - {fileID: 21300000, guid: 276f8d7b00bc0b7419436b7cdebfa40e, type: 3}
    - {fileID: 21300000, guid: 43bc0ca014f82e44c8026880f48959c3, type: 3}
    - {fileID: 21300000, guid: 300655cfac20d1841b0291c9c9b8ff67, type: 3}
    - {fileID: 21300000, guid: cf1b26dfa7ccdae4aac59a0635dab9b0, type: 3}
    - {fileID: 21300000, guid: e1fedd3f64ff1654d918d0ae2c8da0a7, type: 3}
    - {fileID: 21300000, guid: 508c1f35b19221d48989d3336289f380, type: 3}
    - {fileID: 21300000, guid: c183235ee1932b24f9daa70deca981ba, type: 3}
    - {fileID: 21300000, guid: b2db2c90f733b88489f20526f9d69028, type: 3}
    - {fileID: 21300000, guid: 08d6936583d4e5e419b65b81853fee2e, type: 3}
    - {fileID: 21300000, guid: c8af0626cbc4de94cb06c45c48f504d8, type: 3}
    - {fileID: 21300000, guid: eb541e24bec8b7d48820178fd942f16e, type: 3}
    - {fileID: 21300000, guid: 08c53006d2c8b9d46afa4ee158accd5b, type: 3}
    - {fileID: 21300000, guid: 113fe474d49970743bbbb36415f2a343, type: 3}
    - {fileID: 21300000, guid: a2f7cfbd2e6208f408aa0d62e279d476, type: 3}
    - {fileID: 21300000, guid: 9840094814ce3e5409a05bd57a0fc222, type: 3}
    - {fileID: 21300000, guid: bfc6fe9e76b535446bd40306c0462b2d, type: 3}
    - {fileID: 21300000, guid: 73cf59fda436074448ea0b499ac828fd, type: 3}
    - {fileID: 21300000, guid: ffbd9001fbbeef344864e2ab794e7057, type: 3}
    - {fileID: 21300000, guid: 05db46d07902a3a4083553a116902f55, type: 3}
    - {fileID: 21300000, guid: 250b4aaa744a6774c9040e683228244c, type: 3}
    - {fileID: 21300000, guid: 6500d65d42b0d994da49e025b5f04a06, type: 3}
    - {fileID: 21300000, guid: ada0d7688734f374b963396554d969f4, type: 3}
    - {fileID: 21300000, guid: 7da46b9fb22bdbd4aa27828c24c3e648, type: 3}
    - {fileID: 21300000, guid: 2597863737b54d24384088f33a0767da, type: 3}
    - {fileID: 21300000, guid: 39148ee2d95b4ad4581a201eed227c85, type: 3}
    - {fileID: 21300000, guid: 6c957f617fc51574f95005074875f998, type: 3}
    - {fileID: 21300000, guid: 49cb79374e1a7da42a7846d8b4d1a3df, type: 3}
    - {fileID: 21300000, guid: b11a3cc2c34b086498b7a26371297b39, type: 3}
    - {fileID: 21300000, guid: 7f964a4e4fbdc3441ba02723422ce114, type: 3}
    - {fileID: 21300000, guid: 715fe29c672a99d40aa3119a4501c5ad, type: 3}
    - {fileID: 21300000, guid: 1fe31c44fa3ddc349985e54fde33bc7a, type: 3}
    - {fileID: 21300000, guid: 7cff543c744872d4d80f00f85db87b29, type: 3}
    - {fileID: 21300000, guid: e892e4de80a14e9479c994bf8aa52b6c, type: 3}
    - {fileID: 21300000, guid: d02a9bb0da16bb248927532897ef7b82, type: 3}
  m_AnimationClipSettings:
    serializedVersion: 2
    m_AdditiveReferencePoseClip: {fileID: 0}
    m_AdditiveReferencePoseTime: 0
    m_StartTime: 0
    m_StopTime: 4.3333335
    m_OrientationOffsetY: 0
    m_Level: 0
    m_CycleOffset: 0
    m_HasAdditiveReferencePose: 0
    m_LoopTime: 0
    m_LoopBlend: 0
    m_LoopBlendOrientation: 0
    m_LoopBlendPositionY: 0
    m_LoopBlendPositionXZ: 0
    m_KeepOriginalOrientation: 0
    m_KeepOriginalPositionY: 1
    m_KeepOriginalPositionXZ: 0
    m_HeightFromFeet: 0
    m_Mirror: 0
  m_EditorCurves: []
  m_EulerEditorCurves: []
  m_HasGenericRootTransform: 0
  m_HasMotionFloatCurves: 0
  m_GenerateMotionCurves: 0
  m_Events:
  - time: 0
    functionName: WindchimesPlay
    data: 
    objectReferenceParameter: {fileID: 0}
    floatParameter: 0
    intParameter: 0
    messageOptions: 0
  - time: 0
    functionName: WindchimesFadeIn
    data: 
    objectReferenceParameter: {fileID: 0}
    floatParameter: 0
    intParameter: 0
    messageOptions: 0
  - time: 2.8333333
    functionName: WindchimesFadeOut
    data: 
    objectReferenceParameter: {fileID: 0}
    floatParameter: 0
    intParameter: 0
    messageOptions: 0
  - time: 4.3333335
    functionName: Rotate
    data: 
    objectReferenceParameter: {fileID: 0}
    floatParameter: 0
    intParameter: 0
    messageOptions: 0
