%YAML 1.1
%TAG !u! tag:unity3d.com,2011:
--- !u!74 &7400000
AnimationClip:
  m_ObjectHideFlags: 0
  m_CorrespondingSourceObject: {fileID: 0}
  m_PrefabInternal: {fileID: 0}
  m_Name: Tree2Anim
  serializedVersion: 6
  m_Legacy: 0
  m_Compressed: 0
  m_UseHighQualityCurve: 1
  m_RotationCurves: []
  m_CompressedRotationCurves: []
  m_EulerCurves: []
  m_PositionCurves: []
  m_ScaleCurves: []
  m_FloatCurves: []
  m_PPtrCurves:
  - curve:
    - time: 0
      value: {fileID: 21300000, guid: c2ef3610d42f6ef48a1fb8014560ecea, type: 3}
    - time: 0.06666667
      value: {fileID: 21300002, guid: c2ef3610d42f6ef48a1fb8014560ecea, type: 3}
    - time: 0.16666667
      value: {fileID: 21300004, guid: c2ef3610d42f6ef48a1fb8014560ecea, type: 3}
    - time: 0.23333333
      value: {fileID: 21300006, guid: c2ef3610d42f6ef48a1fb8014560ecea, type: 3}
    - time: 0.33333334
      value: {fileID: 21300008, guid: c2ef3610d42f6ef48a1fb8014560ecea, type: 3}
    - time: 0.4
      value: {fileID: 21300010, guid: c2ef3610d42f6ef48a1fb8014560ecea, type: 3}
    - time: 0.51666665
      value: {fileID: 21300012, guid: c2ef3610d42f6ef48a1fb8014560ecea, type: 3}
    - time: 0.5833333
      value: {fileID: 21300014, guid: c2ef3610d42f6ef48a1fb8014560ecea, type: 3}
    - time: 0.68333334
      value: {fileID: 21300016, guid: c2ef3610d42f6ef48a1fb8014560ecea, type: 3}
    - time: 0.75
      value: {fileID: 21300018, guid: c2ef3610d42f6ef48a1fb8014560ecea, type: 3}
    - time: 0.85
      value: {fileID: 21300020, guid: c2ef3610d42f6ef48a1fb8014560ecea, type: 3}
    - time: 0.9166667
      value: {fileID: 21300022, guid: c2ef3610d42f6ef48a1fb8014560ecea, type: 3}
    - time: 0.98333335
      value: {fileID: 21300024, guid: c2ef3610d42f6ef48a1fb8014560ecea, type: 3}
    - time: 1.0833334
      value: {fileID: 21300026, guid: c2ef3610d42f6ef48a1fb8014560ecea, type: 3}
    - time: 1.15
      value: {fileID: 21300028, guid: c2ef3610d42f6ef48a1fb8014560ecea, type: 3}
    - time: 1.25
      value: {fileID: 21300030, guid: c2ef3610d42f6ef48a1fb8014560ecea, type: 3}
    - time: 1.3166667
      value: {fileID: 21300032, guid: c2ef3610d42f6ef48a1fb8014560ecea, type: 3}
    - time: 1.4166666
      value: {fileID: 21300034, guid: c2ef3610d42f6ef48a1fb8014560ecea, type: 3}
    - time: 1.4833333
      value: {fileID: 21300036, guid: c2ef3610d42f6ef48a1fb8014560ecea, type: 3}
    - time: 1.6
      value: {fileID: 21300038, guid: c2ef3610d42f6ef48a1fb8014560ecea, type: 3}
    - time: 1.6666666
      value: {fileID: 21300040, guid: c2ef3610d42f6ef48a1fb8014560ecea, type: 3}
    - time: 1.7666667
      value: {fileID: 21300042, guid: c2ef3610d42f6ef48a1fb8014560ecea, type: 3}
    - time: 1.8333334
      value: {fileID: 21300044, guid: c2ef3610d42f6ef48a1fb8014560ecea, type: 3}
    - time: 1.9333333
      value: {fileID: 21300046, guid: c2ef3610d42f6ef48a1fb8014560ecea, type: 3}
    - time: 2
      value: {fileID: 21300048, guid: c2ef3610d42f6ef48a1fb8014560ecea, type: 3}
    attribute: m_Sprite
    path: 
    classID: 212
    script: {fileID: 0}
  m_SampleRate: 60
  m_WrapMode: 0
  m_Bounds:
    m_Center: {x: 0, y: 0, z: 0}
    m_Extent: {x: 0, y: 0, z: 0}
  m_ClipBindingConstant:
    genericBindings:
    - serializedVersion: 2
      path: 0
      attribute: 0
      script: {fileID: 0}
      typeID: 212
      customType: 23
      isPPtrCurve: 1
    pptrCurveMapping:
    - {fileID: 21300000, guid: c2ef3610d42f6ef48a1fb8014560ecea, type: 3}
    - {fileID: 21300002, guid: c2ef3610d42f6ef48a1fb8014560ecea, type: 3}
    - {fileID: 21300004, guid: c2ef3610d42f6ef48a1fb8014560ecea, type: 3}
    - {fileID: 21300006, guid: c2ef3610d42f6ef48a1fb8014560ecea, type: 3}
    - {fileID: 21300008, guid: c2ef3610d42f6ef48a1fb8014560ecea, type: 3}
    - {fileID: 21300010, guid: c2ef3610d42f6ef48a1fb8014560ecea, type: 3}
    - {fileID: 21300012, guid: c2ef3610d42f6ef48a1fb8014560ecea, type: 3}
    - {fileID: 21300014, guid: c2ef3610d42f6ef48a1fb8014560ecea, type: 3}
    - {fileID: 21300016, guid: c2ef3610d42f6ef48a1fb8014560ecea, type: 3}
    - {fileID: 21300018, guid: c2ef3610d42f6ef48a1fb8014560ecea, type: 3}
    - {fileID: 21300020, guid: c2ef3610d42f6ef48a1fb8014560ecea, type: 3}
    - {fileID: 21300022, guid: c2ef3610d42f6ef48a1fb8014560ecea, type: 3}
    - {fileID: 21300024, guid: c2ef3610d42f6ef48a1fb8014560ecea, type: 3}
    - {fileID: 21300026, guid: c2ef3610d42f6ef48a1fb8014560ecea, type: 3}
    - {fileID: 21300028, guid: c2ef3610d42f6ef48a1fb8014560ecea, type: 3}
    - {fileID: 21300030, guid: c2ef3610d42f6ef48a1fb8014560ecea, type: 3}
    - {fileID: 21300032, guid: c2ef3610d42f6ef48a1fb8014560ecea, type: 3}
    - {fileID: 21300034, guid: c2ef3610d42f6ef48a1fb8014560ecea, type: 3}
    - {fileID: 21300036, guid: c2ef3610d42f6ef48a1fb8014560ecea, type: 3}
    - {fileID: 21300038, guid: c2ef3610d42f6ef48a1fb8014560ecea, type: 3}
    - {fileID: 21300040, guid: c2ef3610d42f6ef48a1fb8014560ecea, type: 3}
    - {fileID: 21300042, guid: c2ef3610d42f6ef48a1fb8014560ecea, type: 3}
    - {fileID: 21300044, guid: c2ef3610d42f6ef48a1fb8014560ecea, type: 3}
    - {fileID: 21300046, guid: c2ef3610d42f6ef48a1fb8014560ecea, type: 3}
    - {fileID: 21300048, guid: c2ef3610d42f6ef48a1fb8014560ecea, type: 3}
  m_AnimationClipSettings:
    serializedVersion: 2
    m_AdditiveReferencePoseClip: {fileID: 0}
    m_AdditiveReferencePoseTime: 0
    m_StartTime: 0
    m_StopTime: 2.0166667
    m_OrientationOffsetY: 0
    m_Level: 0
    m_CycleOffset: 0
    m_HasAdditiveReferencePose: 0
    m_LoopTime: 1
    m_LoopBlend: 0
    m_LoopBlendOrientation: 0
    m_LoopBlendPositionY: 0
    m_LoopBlendPositionXZ: 0
    m_KeepOriginalOrientation: 0
    m_KeepOriginalPositionY: 1
    m_KeepOriginalPositionXZ: 0
    m_HeightFromFeet: 0
    m_Mirror: 0
  m_EditorCurves: []
  m_EulerEditorCurves: []
  m_HasGenericRootTransform: 0
  m_HasMotionFloatCurves: 0
  m_GenerateMotionCurves: 0
  m_Events: []
